Q;Pf
1250;1.535E-01
1500;1.067E-01
1750;7.418E-02
2000;5.157E-02
2250;3.585E-02
2500;2.377E-02
2750;1.546E-02
3000;9.681E-03
3250;6.092E-03
3500;3.692E-03
3750;1.956E-03
4000;9.505E-04
4250;4.686E-04
4500;2.021E-04
4750;7.004E-05
5000;1.667E-05
5250;3.952E-06
5500;8.333E-07
