Vak [-];Zakkingdata [m/jaar]
10001012;0.004
10001013;0.004
10001014;0.004
10008801;0.004
11001001;0.003
11001002;0.003
11001003;0.003
11001004;0.003
11001005;0.003
11001006;0.003
11001007;0.003
11001008;0.003
11001009;0.003
11001010;0.003
11001011;0.004
11001012;0.004
11002001;0.004
11002002;0.004
16001001;0.006
16001002;0.006
16001003;0.006
16001004;0.005
16001005;0.005
24001001;0.006
240010011;0.006
240010012;0.006
24001002;0.006
240010021;0.006
240010022;0.006
24001003;0.006
24001004;0.006
24001005;0.006
24001006;0.006
24001007;0.006
24001008;0.006
24001009;0.006
24001010;0.006
24001011;0.006
24001012;0.006
24001013;0.006
24001014;0.006
24001015;0.006
24001016;0.006
24002012;0.006
24003001;0.004
24003002;0.004
24003003;0.004
24003004;0.004
24003005;0.004
24003006;0.004
24003007;0.004
24003008;0.004
24003009;0.004
24003010;0.004
24003011;0.004
24003012;0.004
24003013;0.004
24003014;0.004
24003015;0.004
24003016;0.005
24003017;0.005
24003018;0.005
24003019;0.005
24003020;0.005
35001000;0
35001001;0.003
35001002;0.003
35001003;0.003
35001004;0.003
35001008;0.003
35001009;0.003
35001010;0.003
35001011;0.003
35001012;0.003
35001013;0.003
35002001;0.003
35002002;0.003
35002003;0.003
35002004;0.003
35002005;0.003
35002006;0.003
35002007;0.003
35002008;0.003
35002009;0.003
35002010;0.003
35002011;0.003
35002012;0.003
35002013;0.003
35002014;0.003
35002015;0.003
35008801;0.003
36001002;0
36001003;0
36001004;0
36001005;0
36001006;0
36001007;0
36001008;0
36001009;0
36001010;0
36001011;0
36001012;0
36001013;0
36001014;0
36001015;0
36001016;0
36001017;0
36001018;0
360010181;0
360010182;0
36001019;0
36001020;0
36001021;0
36001022;0
36001023;0
36001024;0
36001025;0
360010251;0
360010252;0
36001026;0
36001027;0
36001028;0
36001029;0
36001030;0
36001031;0
36001032;0
36001033;0
36001034;0
36001035;0
36001036;0
36001037;0
36001038;0
36001039;0
36001040;0
36001041;0
36001042;0
36001043;0
36001044;0
36001045;0
36001046;0
36001047;0
36001048;0
36001049;0
36001050;0
36001051;0
36001052;0
36001053;0
36001054;0
36001055;0
36001056;0
360010561;0
360010562;0
36001057;0
36001058;0
36001059;0
36001060;0
36001061;0
36001062;0
36001063;0
36001064;0
36001065;0
36001066;0
36001067;0
36001068;0
360010681;0
360010682;0
36001069;0
36001070;0
36001071;0
36001072;0
36001073;0
36001074;0
36001075;0
36001076;0
36001077;0
36001078;0
36001079;0
36001080;0
36001081;0
36001082;0
36001083;0
36001084;0
36001085;0
36001086;0
36001087;0
36001088;0
36001089;0
36001090;0
360010901;0
360010902;0
36001091;0
36001092;0
360010921;0
360010922;0
36001093;0
36001094;0
36001095;0
36001096;0
36001097;0
36001098;0
36001099;0
36001100;0
36001101;0
36001102;0
36001103;0
36002001;0
36003001;0
36003002;0.002
36003003;0.002
36003004;0.002
36003005;0.002
36003006;0.002
36101000;0
36101001;0
36101002;0
36101003;0
36101004;0
37001000;0
37001001;0
37001002;0
38001001;0.002
38001002;0.002
38001003;0.002
38001004;0.002
38001005;0.002
38001006;0.002
38001007;0.002
38001008;0.002
38001009;0.002
38001010;0.002
38001011;0.002
38001012;0.002
38001013;0.002
38001014;0.002
38001015;0.002
38001016;0.002
38001017;0.002
38001018;0.002
38001019;0.002
38001020;0.002
38001021;0.002
38001022;0.002
38001023;0.002
38001024;0.002
38001025;0.002
38001026;0.002
38001027;0.002
38001028;0.002
38001029;0.002
38001030;0.002
38001031;0.002
38001032;0.002
38001035;0.002
38001036;0.002
38002001;0
38002002;0
38002003;0
38002004;0
38002005;0
38003001;0
38003002;0
38003003;0
380030031;0
380030032;0
38003004;0
38003005;0
38003006;0
38003007;0
38003008;0
38003009;0
38003010;0
38003011;0
38003012;0
38003013;0
38003014;0
38003015;0
38003016;0
38003017;0
38003018;0
38003019;0
38008801;0.002
39001001;0
39001002;0
39001003;0
39001004;0
39001005;0
39001006;0
39001007;0
40001001;0.002
40001002;0.002
40001003;0.002
40001004;0.002
40001005;0.002
40001006;0.002
40001007;0.002
40001008;0.002
40002001;0
40002002;0
40002003;0
40002004;0
40002005;0
40002006;0
40002007;0
40002008;0
40002009;0
40002010;0
41003001;0
410030011;0
410030012;0
41003002;0
41003003;0
41003004;0
41003005;0
41003006;0
41003007;0
41003008;0
41003009;0
41003010;0
41003011;0
41003012;0
41003013;0
41003014;0
41003015;0
41003016;0
41003017;0
41003018;0
41003019;0
41003020;0
41003021;0
41003022;0
41003023;0
41003024;0
41003025;0
41003026;0
410030261;0
410030262;0
41003027;0
41003028;0
41003029;0
410030291;0
410030292;0
41003031;0.002
41003032;0.002
41003033;0.002
41003034;0.002
41003035;0.002
41003036;0
41003037;0
41003038;0
41003039;0
41003040;0
41003041;0
41003042;0
41003043;0
41003044;0
41003045;0
41003046;0
41003047;0
41003048;0
41003049;0
41003050;0
41003051;0
41003052;0
41003053;0
41003054;0
41003055;0
41003056;0
41003057;0
41005002;0
410050021;0
410050022;0
41006001;0
42001001;0
42001002;0
42001003;0
42001004;0
42001005;0
42001006;0
42001007;0
42001008;0
42001009;0
42001010;0
42002001;0
42002002;0
42002003;0
42002004;0
42002005;0
42002006;0
42002007;0
42002008;0
42002009;0
42003001;0
42003002;0
42003003;0
42003004;0
42003005;0
43001001;0.005
43001002;0.005
43001003;0.005
43001004;0.005
43001005;0.005
43001006;0.005
43001007;0.005
43001008;0.005
43001009;0.002
43001010;0.002
43001011;0.002
43001012;0.002
43001013;0.002
43001014;0.002
43001015;0.002
43001016;0.002
43001017;0.002
43001018;0.002
43001019;0.002
43001020;0.002
43001021;0.002
43001022;0.002
43001023;0.002
43001024;0.002
43001025;0.002
43001026;0.002
43001027;0.002
43001028;0.002
43001029;0.002
43001030;0.002
43001031;0.002
43001032;0.002
43001033;0.002
43001034;0.002
43001035;0.002
43001036;0.002
43001037;0.002
43001038;0.002
43001039;0.002
43001040;0.002
43001041;0.002
43001042;0.002
43001043;0.002
43001044;0.002
43001045;0.002
43002001;0.002
43002003;0
43003001;0
43003002;0
43003003;0
43003004;0
43003005;0
43003006;0
43003007;0
43003008;0
43003009;0
43003010;0
43003011;0
43003012;0
43003013;0
43003014;0
43003015;0
43003016;0
43003017;0
43003018;0
43003019;0
43003020;0
43003021;0
43003022;0
43003023;0
43003024;0
43003025;0
43003026;0
43003027;0
43003028;0
43003029;0
43003031;0
43003032;0
43003033;0
43003034;0
43003035;0
43003036;0
43003037;0
43003038;0
43003039;0
43003040;0
43003041;0
43003042;0
43003043;0
43003044;0
43003045;0
43003046;0
43003047;0
43003048;0
43003049;0
43003050;0
43003051;0
43003052;0
43003053;0
43003054;0
43003055;0
43003056;0
43003057;0
43008801;0
47001001;0
47002001;0
47002002;0
47002003;0
47002004;0
47002005;0
47002006;0
47002007;0
47002008;0
47002009;0
47002010;0
47002011;0
48001001;0
48001002;0
48001003;0
48001004;0
48001005;0
48001006;0
48001007;0
48001008;0
48001009;0
48001010;0
48001011;0
48001012;0
48001013;0
48001014;0
48001015;0
48001016;0
48001017;0
48001018;0
48001019;0
48001020;0
48001021;0
48001022;0
48001023;0
48001024;0
48001025;0
48001026;0
48001027;0
48001028;0
48001029;0
48001030;0
48001031;0
48001032;0
48001033;0
48001034;0
48001035;0
48001036;0
48001037;0
48001038;0
48001039;0
48001040;0
48001041;0
48001042;0
48001043;0
48001044;0
48001045;0
48001046;0
48001047;0
48001048;0
48001049;0
48001050;0
48001051;0
48001052;0
48001053;0
48001054;0
48001055;0
48001056;0
49001002;0
49001003;0
49001004;0
49001005;0
49001006;0
49001007;0
49001008;0
49001009;0
49001010;0
49001011;0
49001012;0
49001013;0
49001014;0
49001015;0
49001016;0
49001017;0
49001018;0
49002001;0
49002002;0
49002003;0
49002004;0
49002005;0
49002006;0
49002007;0
49002008;0
49002009;0
49002010;0
49002011;0
49002012;0
49002013;0
49002014;0
49002015;0
49002016;0
49002017;0
49003001;0
49003002;0
49003003;0
49003004;0
49003005;0
49003006;0
49003007;0
49003008;0
49003009;0
49003010;0
49003011;0
49003012;0
49003013;0
50001001;0
50001002;0
50001003;0
50001004;0
50001005;0
50001006;0
50001007;0
50001008;0
50001009;0
50001010;0
50002001;0
50002002;0
50002003;0
50002004;0
50003001;0
50003002;0
51001001;0
51001002;0
51001003;0
51001004;0
51002001;0
51002002;0
51002003;0
51002004;0
51002005;0
51002006;0
51002007;0
51002008;0
51002009;0
51002010;0
51002011;0
51003001;0
51003002;0
51003003;0
52001001;0
52001002;0
52001003;0
52001004;0
52001005;0
52001006;0
52001007;0
52001012;0
52001013;0
52001014;0
52001015;0
52001016;0
52001017;0
52001019;0
52001020;0
52002001;0
52002002;0
52002003;0
52002004;0
52002005;0
52002006;0
52002007;0
52002008;0
52002009;0
52002010;0
52002011;0
52002012;0
52002013;0
52002014;0
52002015;0
52002016;0
52002017;0
52002018;0
52002019;0
52003001;0
52003002;0
52003003;0
52003004;0
52003005;0
52003007;0
52003008;0
52003009;0
52003010;0
52003011;0
52003012;0
52003013;0
52003014;0
52003015;0
52003016;0
52003017;0
52003018;0
52008801;0
52008802;0
52008803;0
52008804;0
53003001;0
53003002;0
53003003;0
53003004;0
53003005;0
53003006;0
53003007;0
53003008;0
53003009;0
53003010;0
53003011;0
53003012;0
53003013;0
53003014;0
53003015;0
53003016;0
53003017;0
53003018;0
53003019;0
53003020;0
53003021;0
53003022;0
53003023;0
53003024;0
53003025;0
53003026;0
53003027;0
53003028;0
53003029;0
53003030;0
53003031;0
53003032;0
53003033;0
53003034;0
53003035;0
53003036;0
53003037;0
53003038;0
53003039;0
53003040;0
53003041;0
53003042;0
54000010;0
54000011;0
54000012;0
54000013;0
54000014;0
54000015;0
54000016;0
54000017;0
54000018;0
54000019;0
54000020;0
54000021;0
54000022;0
54000023;0
54000024;0
54000025;0
54000026;0
54000027;0
54000028;0
54000029;0
54000030;0
54000031;0
54000032;0
54000033;0
54000034;0
54000035;0
54000036;0
54000037;0
54000038;0
54000039;0
54000040;0
54000041;0
54000042;0
54000043;0
54000044;0
54000045;0
54000046;0
54000047;0
55000010;0
55000011;0
55000012;0
55000013;0
55000014;0
55000015;0
55000016;0
55000017;0
55000018;0
55000019;0
55000020;0
55000021;0
55000022;0
55000023;0
55000024;0
55000025;0
55000026;0
55000027;0
55000028;0
55000029;0
55000030;0
55000031;0
55000032;0
55000033;0
55000034;0
55000035;0
55000036;0
55000037;0
55000038;0
55000039;0
55000040;0
55000041;0
56000010;0
56000011;0
57000010;0
57000011;0
57000012;0
57000013;0
57000014;0
57000015;0
57000016;0
58000001;0
59000010;0
59000011;0
59000012;0
60000010;0
60000011;0
60000012;0
60000013;0
60000014;0
60000015;0
60000016;0
60000017;0
60000018;0
61000010;0
61000011;0
61100001;0
61100003;0
61100004;0
61100005;0
61100006;0
61000017;0
61000018;0
61000019;0
61000020;0
61000021;0
61000022;0
61000023;0
61000024;0
61000025;0
61000026;0
61000027;0
61000028;0
61000029;0
61000030;0
61100002;0
61100010;0
61000033;0
61000034;0
61000035;0
61000036;0
61000037;0
61100009;0
61000039;0
61100008;0
62000010;0
62000011;0
62000012;0
62000013;0
62100009;0
62000015;0
62000016;0
62000017;0
62000018;0
62000019;0
62000020;0
62000021;0
62000022;0
62000023;0
62000024;0
62100001;0
62000026;0
62000027;0
62100003;0
62000029;0
62000030;0
62000031;0
62000032;0
62000033;0
62000034;0
62100004;0
62100005;0
62000037;0
62100006;0
62000039;0
62000040;0
62000041;0
62000042;0
62000043;0
62100007;0
62000045;0
62000046;0
62000047;0
62100008;0
62100002;0
63000010;0
63000011;0
63000012;0
63000013;0
63000014;0
63000015;0
63000016;0
63000017;0
63000018;0
63000019;0
63000020;0
63000021;0
63000022;0
63000023;0
63000024;0
63000025;0
63000026;0
63000027;0
63000028;0
63000029;0
63000030;0
63000031;0
63000032;0
63000033;0
63000034;0
63100002;0
63000036;0
63100001;0
63000038;0
63000039;0
63000040;0
63000041;0
63000042;0
63000043;0
63000044;0
63000045;0
63000046;0
63000047;0
63000048;0
63000049;0
63000050;0
63000051;0
63000052;0
63200002;0
63000054;0
63000055;0
63000056;0
63000057;0
63000058;0
63000059;0
63000060;0
63000061;0
63000062;0
63000063;0
63000064;0
63000065;0
63000066;0
63000067;0
63000068;0
63000069;0
63000070;0
63000071;0
63200001;0
64000010;0
64000011;0
64000012;0
64100003;0
64100004;0
64000015;0
64000016;0
64100005;0
64000018;0
64000019;0
64100006;0
64000021;0
64000022;0
64000023;0
64000024;0
64100002;0
64100001;0
65000010;0
65000011;0
65000012;0
65000013;0
65000014;0
65000015;0
65000016;0
66000010;0
67000010;0
68000010;0
68000011;0
68000012;0
68000013;0
68000014;0
68000015;0
68000016;0
68000017;0
68000018;0
68000019;0
68000020;0
68000021;0
68000022;0
68000023;0
68000024;0
68000025;0
68000026;0
68000027;0
68000028;0
68000029;0
68000030;0
68000031;0
68000032;0
68000033;0
68000034;0
68000035;0
68000036;0
68000037;0
68000038;0
68000039;0
68000040;0
68000041;0
68000042;0
68000043;0
68000044;0
68000045;0
68000046;0
68000047;0
68000048;0
68000049;0
68000050;0
68000051;0
68000052;0
68000053;0
68000054;0
68000055;0
68000056;0
68000057;0
68000058;0
68000059;0
69000010;0
69000011;0
69000012;0
69000013;0
69000014;0
69000015;0
69000016;0
69000017;0
69000018;0
69000019;0
69000020;0
69000021;0
69000022;0
69000023;0
69000024;0
69000025;0
69000026;0
69000027;0
69000028;0
69000029;0
69000030;0
69000031;0
69000032;0
69000033;0
69000034;0
69000035;0
69000036;0
69000037;0
69000038;0
69000039;0
69000040;0
69000041;0
69000042;0
69000043;0
70000010;0
70000011;0
70000012;0
70000013;0
70000014;0
71000010;0
72000010;0
73000010;0
73000011;0
73000012;0
73000013;0
74000010;0
74000011;0
74000012;0
75000010;0
75000011;0
75000012;0
75000013;0
76000010;0
76000011;0
76000012;0
76000013;0
76000014;0
76000015;0
76000016;0
76000017;0
76000018;0
76000019;0
76000020;0
76000021;0
76000022;0
76000023;0
76000024;0
76000025;0
76000026;0
76000027;0
76000028;0
76000029;0
76000030;0
76000031;0
76000032;0
76000033;0
76000034;0
76000035;0
76000036;0
76000037;0
76000038;0
76000039;0
76000040;0
76000041;0
76000042;0
76000043;0
76000044;0
76000045;0
76000046;0
76000047;0
76000048;0
76000049;0
76000050;0
76000051;0
76000053;0
76000056;0
76000057;0
76000058;0
77000010;0
77000011;0
77000012;0
77000013;0
77000014;0
77000015;0
77000016;0
77000017;0
77000018;0
77000019;0
77000020;0
77000021;0
77000022;0
77000023;0
77000024;0
77000025;0
77000026;0
77000027;0
77000028;0
77000029;0
77000030;0
77000031;0
77000032;0
77000034;0
77000035;0
77000036;0
77000037;0
77000038;0
77000039;0
77000040;0
77000041;0
77000042;0
77000043;0
77000044;0
77000045;0
77000046;0
77000047;0
77000048;0
77000049;0
77000050;0
77000051;0
77000052;0
77000053;0
78000101;0
78000001;0
78000010;0
78000011;0
78000012;0
78000013;0
78000014;0
78000015;0
78000016;0
78000017;0
78000018;0
78000019;0
78000020;0
78000021;0
78000022;0
78000023;0
78000024;0
78000025;0
78000026;0
79000010;0
79000011;0
79000012;0
79000013;0
79000014;0
79000015;0
79000016;0
79000017;0
79000018;0
79000019;0
79000020;0
79000021;0
79000022;0
79000023;0
80000010;0
80000011;0
80000012;0
81000010;0
81000011;0
81000012;0
81000013;0
81000014;0
81000015;0
81000016;0
81000017;0
81000018;0
81000019;0
81000020;0
81000021;0
81000022;0
81000023;0
81000024;0
81000025;0
81000026;0
81000027;0
81000028;0
81000029;0
81000030;0
81000032;0
81000033;0
81000034;0
81000035;0
81000036;0
81000037;0
81000038;0
81000039;0
81000041;0
81000042;0
81000043;0
81000044;0
81000045;0
81000046;0
81000047;0
81000048;0
81000049;0
81000050;0
81000051;0
82000010;0
82000011;0
82000012;0
82000013;0
82000014;0
83000010;0
83000011;0
83000012;0
83000013;0
83000015;0
83000016;0
83000017;0
83000018;0
83000020;0
83000021;0
83000022;0
83000023;0
83000024;0
83000025;0
83000026;0
83000027;0
83000034;0
83000035;0
83000036;0
83000037;0
83000038;0
83000039;0
83000040;0
83000041;0
83000042;0
83000044;0
83000045;0
83000046;0
83000047;0
83000048;0
83000049;0
83000050;0
83000051;0
83000052;0
83000053;0
83000055;0
83000056;0
83000057;0
83000058;0
83000059;0
83000061;0
83000062;0
83000063;0
83000064;0
83000065;0
83000066;0
83000067;0
83000068;0
83000069;0
83000070;0
83000071;0
83000072;0
83000073;0
83000074;0
83000075;0
83000076;0
83000077;0
83000078;0
85000010;0
85000011;0
86000010;0
86000011;0
86000013;0
86000014;0
86000015;0
86000016;0
86000018;0
86000019;0
87000010;0
87000011;0
87000012;0
87000014;0
87000015;0
87000016;0
87000017;0
87000018;0
87000019;0
87000020;0
87000022;0
87000023;0
87000024;0
87000025;0
87000026;0
87000027;0
87000029;0
88000010;0
88000011;0
88000012;0
88000013;0
88000014;0
88000015;0
88000016;0
88000017;0
88000018;0
88000019;0
88000020;0
88000021;0
89000010;0
89000011;0
89000012;0
89000013;0
90000010;0
90000011;0
90000012;0
90000013;0
90000014;0
90000015;0
90000016;0
90000017;0
90000019;0
90000020;0
90000021;0
90000022;0
90000023;0
90000024;0
90000025;0
90000028;0
90000029;0
90000030;0
90000031;0
90000032;0
90000033;0
91000010;0
91000011;0
91000012;0
91000013;0
91000014;0
91000015;0
91000016;0
91000017;0
91000018;0
91000019;0
91000020;0
91000021;0
91000022;0
91000023;0
91000024;0
91000025;0
91000026;0
91000027;0
92000010;0
92000011;0
92000012;0
92000013;0
92000014;0
92000015;0
92000016;0
92000017;0
92000018;0
92000019;0
92000020;0
92000021;0
93000010;0
93000011;0
93000012;0
93000013;0
93000014;0
93000016;0
93000017;0
93000019;0
93000020;0
93000022;0
94000010;0
94000011;0
95000010;0
95000011;0
95000012;0
95000013;0
95000014;0
95000016;0
16003001;0.004
16003002;0.004
16003003;0.004
16003004;0.004
16003005;0.004
16003006;0.004
16003007;0.004
16003008;0.004
16003009;0.004
16003010;0.004
16003011;0.006
16003012;0.006
16003013;0.006
16003014;0.006
16003015;0.006
16003016;0.006
16003017;0.007
16003018;0.007
16003019;0.007
16003020;0.008
16003021;0.008
16003022;0.008
16003023;0.008
16003024;0.008
16003025;0.008
16003026;0.008
16003027;0.008
16003028;0.008
16003029;0.008
16003030;0.008
16003031;0.008
16003032;0.008
16003033;0.008
16003034;0.008
43004001;0.0
43004003;0.0
43005001;0.0
43005002;0.0
43005003;0.0
43005004;0.0
43005005;0.0
43005006;0.0
43005007;0.0
43005008;0.0
43005009;0.0
43005010;0.0
43005011;0.0
43005012;0.0
43005013;0.0
43003058;0.0
43003059;0.0
43003060;0.0
43003061;0.0
43003062;0.0
43003063;0.0
43003064;0.0
43003065;0.0
43003066;0.0
43003067;0.0
43003068;0.0
43003069;0.0
43003070;0.0
43003071;0.0
43003072;0.0
43003073;0.0
43003074;0.0
43003075;0.0
43003076;0.0
43003077;0.0
43003078;0.0
43003079;0.0
43003080;0.0
43003081;0.0
43003082;0.0
43003083;0.0
43003084;0.0
43003085;0.0
43003086;0.0
43003087;0.0
43003088;0.0
43003089;0.0
43003090;0.0
43003091;0.0
43006001;0.0
15002012;0.008
15002013;0.008
15002014;0.008
15002015;0.008
15002016;0.008
15002017;0.008
15002018;0.008
15002019;0.008
15002020;0.008
15002021;0.008
44001001;0.0
44001002;0.0
44001003;0.0
44001004;0.0
44001005;0.0
44001006;0.0
44001007;0.0
44001010;0.0
44001011;0.0
44001012;0.0
44002001;0.0
44002003;0.0
44003001;0.0
44003002;0.0
44003003;0.0
44003004;0.0
44003005;0.0
44003006;0.0
44003007;0.0
44003008;0.0
44003009;0.0
44003010;0.0
44003011;0.0
44003012;0.0
44003013;0.0
44003014;0.0
44003015;0.0
44003016;0.0
44003017;0.0
44003018;0.0
44003019;0.0
44003020;0.0
44003021;0.0
44003022;0.0
44004001;0.0
45001001;0.0
45001002;0.0
45001003;0.0
45001004;0.0
45001005;0.0
15001001;0.004
15001002;0.004
15001003;0.004
15001004;0.004
15001005;0.004
15001006;0.004
15001007;0.004
15001008;0.009
15001009;0.009
15001010;0.009
15001011;0.009
15001012;0.009
15001013;0.009
15001014;0.009
15001015;0.009
15001016;0.009
15001017;0.009
15001018;0.009
15001019;0.009
15001020;0.004
15001021;0.008
15002001;0.008
15002002;0.008
15002003;0.008
15002004;0.008
15002005;0.008
15002006;0.008
15002007;0.008
15002008;0.008
15002009;0.008
15002010;0.008
15002011;0.008
47001003;0.0
47001002;0.0
47001008;0.0
47001007;0.0
47001006;0.0
47001005;0.0
47001004;0.0
