Vak;Max_kwelscherm [m];Max_stabiliteitswand [m]
10001012;15;15
10001013;15;15
10001014;15;15
10008801;15;15
11001001;15;15
11001002;15;15
11001003;15;15
11001004;15;15
11001005;15;15
11001006;15;15
11001007;15;15
11001008;15;15
11001009;15;15
11001010;15;15
11001011;15;15
11001012;15;15
11002001;15;15
11002002;15;15
16001001;15;15
16001002;15;15
16001003;15;15
16001004;15;15
16001005;15;15
24003001;15;15
24003002;15;15
24003003;15;15
24003004;15;15
24003005;15;15
24003006;15;15
24003007;15;15
24003008;15;15
24003009;15;15
24003010;15;15
24003011;15;15
24003012;15;15
24003013;15;15
24003014;15;15
24003015;15;15
24003016;15;15
24003017;15;15
24003018;15;15
24003019;15;15
24003020;15;15
38001001;15;15
38001002;15;15
38001003;15;15
38001004;15;15
38001005;15;15
38001006;15;15
38001007;15;15
38001008;15;15
38001009;15;15
38001010;15;15
38001011;15;15
38001012;15;15
38001013;15;15
38001014;15;15
38001015;15;15
38001016;15;15
38001017;15;15
38001018;15;15
38001019;15;15
38001020;15;15
38001021;15;15
38001022;15;15
38001023;15;15
38001024;15;15
38001025;15;15
38001026;15;15
38001027;15;15
38001028;15;15
38001029;15;15
38001030;15;15
38001031;15;15
38001032;15;15
38001035;15;15
38001036;15;15
38008801;15;15
40001001;15;15
40001002;15;15
40001003;15;15
40001004;15;15
40001005;15;15
40001006;15;15
40001007;15;15
40001008;15;15
41003031;15;15
41003032;15;15
41003033;15;15
41003034;15;15
41003035;15;15
41003036;15;15
41003037;15;15
41003038;15;15
41003039;15;15
41003040;15;15
41003041;15;15
41003042;15;15
41003043;15;15
41003044;15;15
41003045;15;15
41003046;15;15
41003047;15;15
41003048;15;15
41003049;15;15
41003050;15;15
41003051;15;15
41003052;15;15
41003053;15;15
41003054;15;15
41003055;15;15
41003056;15;15
41003057;15;15
41006001;15;15
42001001;15;15
42001002;15;15
42001003;15;15
42001004;15;15
42001005;15;15
42001006;15;15
42001007;15;15
42001008;15;15
42001009;15;15
42001010;15;15
42002001;15;15
42002002;15;15
42002003;15;15
42002004;15;15
42002005;15;15
42002006;15;15
42002007;15;15
42002008;15;15
42002009;15;15
42003001;15;15
42003002;15;15
42003003;15;15
42003004;15;15
42003005;15;15
43001001;15;15
43001002;15;15
43001003;15;15
43001004;15;15
43001005;15;15
43001006;15;15
43001007;15;15
43001008;15;15
43001009;15;15
43001010;15;15
43001011;15;15
43001012;15;15
43001013;15;15
43001014;15;15
43001015;15;15
43001016;15;15
43001017;15;15
43001018;15;15
43001019;15;15
43001020;15;15
43001021;15;15
43001022;15;15
43001023;15;15
43001024;15;15
43001025;15;15
43001026;15;15
43001027;15;15
43001028;15;15
43001029;15;15
43001030;15;15
43001031;15;15
43001032;15;15
43001033;15;15
43001034;15;15
43001035;15;15
43001036;15;15
43001037;15;15
43001038;15;15
43001039;15;15
43001040;15;15
43001041;15;15
43001042;15;15
43001043;15;15
43001044;15;15
43001045;15;15
43002001;15;15
43002003;15;15
43003001;15;15
43003002;15;15
43003003;15;15
43003004;15;15
43003005;15;15
43003006;15;15
43003007;15;15
43003008;15;15
43003009;15;15
43003010;15;15
43003011;15;15
43003012;15;15
43003013;15;15
43003014;15;15
43003015;15;15
43003016;15;15
43003017;15;15
43003018;15;15
43003019;15;15
43003020;15;15
43003021;15;15
43003022;15;15
43003023;15;15
43003024;15;15
43003025;15;15
43003026;15;15
43003027;15;15
43003028;15;15
43003029;15;15
43003031;15;15
43003032;15;15
43003033;15;15
43003034;15;15
43003035;15;15
43003036;15;15
43003037;15;15
43003038;15;15
43003039;15;15
43003040;15;15
43003041;15;15
43003042;15;15
43003043;15;15
43003044;15;15
43003045;15;15
43003046;15;15
43003047;15;15
43003048;15;15
43003049;15;15
43003050;15;15
43003051;15;15
43003052;15;15
43003053;15;15
43003054;15;15
43003055;15;15
43008801;15;15
47001001;15;15
47002001;15;15
47002002;15;15
47002003;15;15
47002004;15;15
47002005;15;15
47002006;15;15
47002007;15;15
47002008;15;15
47002009;15;15
47002010;15;15
47002011;15;15
48001001;15;15
48001002;15;15
48001003;15;15
48001004;15;15
48001005;15;15
48001006;15;15
48001007;15;15
48001008;15;15
48001009;15;15
48001010;15;15
48001011;15;15
48001012;15;15
48001013;15;15
48001014;15;15
48001015;15;15
48001016;15;15
48001017;15;15
48001018;15;15
48001019;15;15
48001020;15;15
48001021;15;15
48001022;15;15
48001023;15;15
48001024;15;15
48001025;15;15
48001026;15;15
48001027;15;15
48001028;15;15
48001029;15;15
48001030;15;15
48001031;15;15
48001032;15;15
48001033;15;15
48001034;15;15
48001035;15;15
48001036;15;15
48001037;15;15
48001038;15;15
48001039;15;15
48001040;15;15
48001041;15;15
48001042;15;15
48001043;15;15
48001044;15;15
48001045;15;15
48001046;15;15
48001047;15;15
48001048;15;15
48001049;15;15
48001050;15;15
48001051;15;15
48001052;15;15
48001053;15;15
48001054;15;15
48001055;15;15
48001056;15;15
49001002;15;15
49001003;15;15
49001004;15;15
49001005;15;15
49001006;15;15
49001007;15;15
49001008;15;15
49001009;15;15
49001010;15;15
49001011;15;15
49001012;15;15
49001013;15;15
49001014;15;15
49001015;15;15
49001016;15;15
49001017;15;15
49001018;15;15
49002001;15;15
49002002;15;15
49002003;15;15
49002004;15;15
49002005;15;15
49002006;15;15
49002007;15;15
49002008;15;15
49002009;15;15
49002010;15;15
49002011;15;15
49002012;15;15
49002013;15;15
49002014;15;15
49002015;15;15
49002016;15;15
49002017;15;15
49003001;15;15
49003002;15;15
49003003;15;15
49003004;15;15
49003005;15;15
49003006;15;15
49003007;15;15
49003008;15;15
49003009;15;15
49003010;15;15
49003011;15;15
49003012;15;15
49003013;15;15
50001001;15;15
50001002;15;15
50001003;15;15
50001004;15;15
50001005;15;15
50001006;15;15
50001007;15;15
50001008;15;15
50001009;15;15
50001010;15;15
50002001;15;15
50002002;15;15
50002003;15;15
50002004;15;15
50003001;15;15
50003002;15;15
51001001;15;15
51001002;15;15
51001003;15;15
51001004;15;15
51002001;15;15
51002002;15;15
51002003;15;15
51002004;15;15
51002005;15;15
51002006;15;15
51002007;15;15
51002008;15;15
51002009;15;15
51002010;15;15
51002011;15;15
51003001;15;15
51003002;15;15
51003003;15;15
52001001;15;15
52001002;15;15
52001003;15;15
52001004;15;15
52001005;15;15
52001006;15;15
52001007;15;15
52001012;15;15
52001013;15;15
52001014;15;15
52001015;15;15
52001016;15;15
52001017;15;15
52001019;15;15
52001020;15;15
52002001;15;15
52002002;15;15
52002003;15;15
52002004;15;15
52002005;15;15
52002006;15;15
52002007;15;15
52002008;15;15
52002009;15;15
52002010;15;15
52002011;15;15
52002012;15;15
52002013;15;15
52002014;15;15
52002015;15;15
52002016;15;15
52002017;15;15
52002018;15;15
52002019;15;15
52003001;15;15
52003002;15;15
52003003;15;15
52003004;15;15
52003005;15;15
52003007;15;15
52003008;15;15
52003009;15;15
52003010;15;15
52003011;15;15
52003012;15;15
52003013;15;15
52003014;15;15
52003015;15;15
52003016;15;15
52003017;15;15
52003018;15;15
52008801;15;15
52008802;15;15
52008803;15;15
52008804;15;15
53003001;15;15
53003002;15;15
53003003;15;15
53003004;15;15
53003005;15;15
53003006;15;15
53003007;15;15
53003008;15;15
53003009;15;15
53003010;15;15
53003011;15;15
53003012;15;15
53003013;15;15
53003014;15;15
53003015;15;15
53003016;15;15
53003017;15;15
53003018;15;15
53003019;15;15
53003020;15;15
53003021;15;15
53003022;15;15
53003023;15;15
53003024;15;15
53003025;15;15
53003026;15;15
53003027;15;15
53003028;15;15
53003029;15;15
53003030;15;15
53003031;15;15
53003032;15;15
53003033;15;15
53003034;15;15
53003035;15;15
53003036;15;15
53003037;15;15
53003038;15;15
53003039;15;15
53003040;15;15
53003041;15;15
53003042;15;15
16003001;15;15
16003002;15;15
16003003;15;15
16003004;15;15
16003005;15;15
16003006;15;15
16003007;15;15
16003008;15;15
16003009;15;15
16003010;15;15
16003011;15;15
16003012;15;15
16003013;15;15
16003014;15;15
16003015;15;15
16003016;15;15
16003017;15;15
16003018;15;15
16003019;15;15
16003020;15;15
16003021;15;15
16003022;15;15
16003023;15;15
16003024;15;15
16003025;15;15
16003026;15;15
16003027;15;15
16003028;15;15
16003029;15;15
16003030;15;15
16003031;15;15
16003032;15;15
16003033;15;15
16003034;15;15
43004001;15;15
43004003;15;15
43005001;15;15
43005002;15;15
43005003;15;15
43005004;15;15
43005005;15;15
43005006;15;15
43005007;15;15
43005008;15;15
43005009;15;15
43005010;15;15
43005011;15;15
43005012;15;15
43005013;15;15
43003056;15;15
43003057;15;15
43003058;15;15
43003059;15;15
43003060;15;15
43003061;15;15
43003062;15;15
43003063;15;15
43003064;15;15
43003065;15;15
43003066;15;15
43003067;15;15
43003068;15;15
43003069;15;15
43003070;15;15
43003071;15;15
43003072;15;15
43003073;15;15
43003074;15;15
43003075;15;15
43003076;15;15
43003077;15;15
43003078;15;15
43003079;15;15
43003080;15;15
43003081;15;15
43003082;15;15
43003083;15;15
43003084;15;15
43003085;15;15
43003086;15;15
43003087;15;15
43003088;15;15
43003089;15;15
43003090;15;15
43003091;15;15
43006001;15;15
15002012;15;15
15002013;15;15
15002014;15;15
15002015;15;15
15002016;15;15
15002017;15;15
15002018;15;15
15002019;15;15
15002020;15;15
15002021;15;15
44001001;15;15
44001002;15;15
44001003;15;15
44001004;15;15
44001005;15;15
44001006;15;15
44001007;15;15
44001010;15;15
44001011;15;15
44001012;15;15
44002001;15;15
44002003;15;15
44003001;15;15
44003002;15;15
44003003;15;15
44003004;15;15
44003005;15;15
44003006;15;15
44003007;15;15
44003008;15;15
44003009;15;15
44003010;15;15
44003011;15;15
44003012;15;15
44003013;15;15
44003014;15;15
44003015;15;15
44003016;15;15
44003017;15;15
44003018;15;15
44003019;15;15
44003020;15;15
44003021;15;15
44003022;15;15
44004001;15;15
45001001;15;15
45001002;15;15
45001003;15;15
45001004;15;15
45001005;15;15
15001001;15;15
15001002;15;15
15001003;15;15
15001004;15;15
15001005;15;15
15001006;15;15
15001007;15;15
15001008;15;15
15001009;15;15
15001010;15;15
15001011;15;15
15001012;15;15
15001013;15;15
15001014;15;15
15001015;15;15
15001016;15;15
15001017;15;15
15001018;15;15
15001019;15;15
15001020;15;15
15001021;15;15
15002001;15;15
15002002;15;15
15002003;15;15
15002004;15;15
15002005;15;15
15002006;15;15
15002007;15;15
15002008;15;15
15002009;15;15
15002010;15;15
15002011;15;15
47001003;15;15
47001002;15;15
47001008;15;15
47001007;15;15
47001006;15;15
47001005;15;15
47001004;15;15
24001003;15;15
24001004;15;15
24001005;15;15
24001006;15;15
24001007;15;15
24001008;15;15
24001009;15;15
24001010;15;15
24001011;15;15
24001012;15;15
24001013;15;15
24001014;15;15
24001015;15;15
24001016;15;15
24002012;15;15
34001001;15;15
34001002;15;15
34001003;15;15
34001004;15;15
34001005;15;15
34001006;15;15
34001007;15;15
34001008;15;15
34001009;15;15
34001010;15;15
34001011;15;15
34002001;15;15
34002002;15;15
34002003;15;15
34002004;15;15
34002005;15;15
34002006;15;15
34002007;15;15
34002008;15;15
34002010;15;15
34002011;15;15
34002012;15;15
34002013;15;15
34101001;15;15
34101002;15;15
34102001;15;15
34102002;15;15
34103001;15;15
34103002;15;15
34103003;15;15
34103004;15;15
34103005;15;15
34103006;15;15
34103007;15;15
34103008;15;15
34103009;15;15
35001000;15;15
35001001;15;15
35001002;15;15
35001003;15;15
35001004;15;15
35001008;15;15
35001009;15;15
35001010;15;15
35001011;15;15
35001012;15;15
35001013;15;15
35002001;15;15
35002002;15;15
35002003;15;15
35002004;15;15
35002005;15;15
35002006;15;15
35002007;15;15
35002008;15;15
35002009;15;15
35002010;15;15
35002011;15;15
35002012;15;15
35002013;15;15
35002014;15;15
35002015;15;15
35008801;15;15
36001002;15;15
36001003;15;15
36001004;15;15
36001005;15;15
36001006;15;15
36001007;15;15
36001008;15;15
36001009;15;15
36001010;15;15
36001011;15;15
36001012;15;15
36001013;15;15
36001014;15;15
36001015;15;15
36001016;15;15
36001017;15;15
36001019;15;15
36001020;15;15
36001021;15;15
36001022;15;15
36001023;15;15
36001024;15;15
36001026;15;15
36001027;15;15
36001028;15;15
36001029;15;15
36001030;15;15
36001031;15;15
36001032;15;15
36001033;15;15
36001034;15;15
36001035;15;15
36001036;15;15
36001037;15;15
36001038;15;15
36001039;15;15
36001040;15;15
36001041;15;15
36001042;15;15
36001043;15;15
36001044;15;15
36001045;15;15
36001046;15;15
36001047;15;15
36001048;15;15
36001049;15;15
36001050;15;15
36001051;15;15
36001052;15;15
36001053;15;15
36001054;15;15
36001055;15;15
36001057;15;15
36001058;15;15
36001059;15;15
36001060;15;15
36001061;15;15
36001062;15;15
36001063;15;15
36001064;15;15
36001065;15;15
36001066;15;15
36001067;15;15
36001069;15;15
36001070;15;15
36001071;15;15
36001072;15;15
36001073;15;15
36001074;15;15
36001075;15;15
36001076;15;15
36001077;15;15
36001078;15;15
36001079;15;15
36001080;15;15
36001081;15;15
36001082;15;15
36001083;15;15
36001084;15;15
36001085;15;15
36001086;15;15
36001087;15;15
36001088;15;15
36001089;15;15
36001091;15;15
36001093;15;15
36001094;15;15
36001095;15;15
36001096;15;15
36001097;15;15
36001098;15;15
36001099;15;15
36001100;15;15
36001101;15;15
36001102;15;15
36001103;15;15
36002001;15;15
36003001;15;15
36003002;15;15
36003003;15;15
36003004;15;15
36003005;15;15
36003006;15;15
36101000;15;15
36101001;15;15
36101002;15;15
36101004;15;15
37001000;15;15
37001001;15;15
37001002;15;15
38002001;15;15
38002002;15;15
38002003;15;15
38002004;15;15
38002005;15;15
38003001;15;15
38003002;15;15
38003004;15;15
38003005;15;15
38003006;15;15
38003007;15;15
38003008;15;15
38003009;15;15
38003010;15;15
38003011;15;15
38003012;15;15
38003013;15;15
38003014;15;15
38003015;15;15
38003016;15;15
38003017;15;15
38003018;15;15
38003019;15;15
39001001;15;15
39001002;15;15
39001003;15;15
39001004;15;15
39001005;15;15
39001006;15;15
39001007;15;15
40002001;15;15
40002002;15;15
40002003;15;15
40002004;15;15
40002005;15;15
40002006;15;15
40002007;15;15
40002008;15;15
40002009;15;15
40002010;15;15
41003002;15;15
41003003;15;15
41003004;15;15
41003005;15;15
41003006;15;15
41003007;15;15
41003008;15;15
41003009;15;15
41003010;15;15
41003011;15;15
41003012;15;15
41003013;15;15
41003014;15;15
41003015;15;15
41003016;15;15
41003017;15;15
41003018;15;15
41003019;15;15
41003020;15;15
41003021;15;15
41003022;15;15
41003023;15;15
41003024;15;15
41003025;15;15
41003027;15;15
41003028;15;15
54000011;15;15
54000012;15;15
54000013;15;15
54000014;15;15
54000015;15;15
54000016;15;15
54000017;15;15
54000018;15;15
54000019;15;15
54000020;15;15
54000021;15;15
54000022;15;15
54000023;15;15
54000024;15;15
54000025;15;15
54000026;15;15
54000027;15;15
54000028;15;15
54000029;15;15
54000030;15;15
54000031;15;15
54000032;15;15
54000033;15;15
54000034;15;15
54000035;15;15
54000036;15;15
54000037;15;15
54000038;15;15
54000039;15;15
54000040;15;15
54000041;15;15
54000042;15;15
54000043;15;15
54000044;15;15
54000045;15;15
54000046;15;15
54000047;15;15
55000010;15;15
55000011;15;15
55000012;15;15
55000013;15;15
55000014;15;15
55000015;15;15
55000016;15;15
55000017;15;15
55000018;15;15
55000019;15;15
55000020;15;15
55000021;15;15
55000022;15;15
55000023;15;15
55000024;15;15
55000025;15;15
55000026;15;15
55000027;15;15
55000028;15;15
55000029;15;15
55000030;15;15
55000031;15;15
55000032;15;15
55000033;15;15
55000034;15;15
55000035;15;15
55000036;15;15
55000037;15;15
55000038;15;15
55000039;15;15
55000040;15;15
55000041;15;15
56000010;15;15
56000011;15;15
57000010;15;15
57000011;15;15
57000012;15;15
57000013;15;15
57000014;15;15
57000015;15;15
57000016;15;15
58000001;15;15
59000010;15;15
59000011;15;15
59000012;15;15
60000010;15;15
60000011;15;15
60000012;15;15
60000013;15;15
60000014;15;15
60000015;15;15
60000016;15;15
60000017;15;15
60000018;15;15
61100001;15;15
61100002;15;15
61100003;15;15
61100004;15;15
61100005;15;15
61100006;15;15
61100007;15;15
61100008;15;15
61100009;15;15
61100010;15;15
62100001;15;15
62100002;15;15
62100003;15;15
62100004;15;15
62100005;15;15
62100006;15;15
62100007;15;15
62100008;15;15
62100009;15;15
63100001;15;15
63100002;15;15
63200001;15;15
63200002;15;15
64100001;15;15
64100002;15;15
64100003;15;15
64100004;15;15
64100005;15;15
64100006;15;15
65000010;15;15
65000011;15;15
65000012;15;15
65000013;15;15
65000014;15;15
65000015;15;15
65000016;15;15
66000010;15;15
67000010;15;15
68000010;15;15
68000011;15;15
68000012;15;15
68000013;15;15
68000014;15;15
68000015;15;15
68000016;15;15
68000017;15;15
68000018;15;15
68000019;15;15
68000020;15;15
68000021;15;15
68000022;15;15
68000023;15;15
68000024;15;15
68000025;15;15
68000026;15;15
68000027;15;15
68000028;15;15
68000029;15;15
68000030;15;15
68000031;15;15
68000032;15;15
68000033;15;15
68000034;15;15
68000035;15;15
68000036;15;15
68000037;15;15
68000038;15;15
68000039;15;15
68000040;15;15
68000041;15;15
68000042;15;15
68000043;15;15
68000044;15;15
68000045;15;15
68000046;15;15
68000047;15;15
68000048;15;15
68000049;15;15
68000050;15;15
68000051;15;15
68000052;15;15
68000053;15;15
68000054;15;15
68000055;15;15
68000056;15;15
68000057;15;15
68000058;15;15
68000059;15;15
69000010;15;15
69000011;15;15
69000012;15;15
69000013;15;15
69000014;15;15
69000015;15;15
69000016;15;15
69000017;15;15
69000018;15;15
69000019;15;15
69000020;15;15
69000021;15;15
69000022;15;15
69000023;15;15
69000024;15;15
69000025;15;15
69000026;15;15
69000027;15;15
69000028;15;15
69000029;15;15
69000030;15;15
69000031;15;15
69000032;15;15
69000033;15;15
69000034;15;15
69000035;15;15
69000036;15;15
69000037;15;15
69000038;15;15
69000039;15;15
69000040;15;15
69000041;15;15
69000042;15;15
69000043;15;15
70000010;15;15
70000011;15;15
70000012;15;15
70000013;15;15
70000014;15;15
71000010;15;15
72000010;15;15
73000010;15;15
73000011;15;15
73000012;15;15
73000013;15;15
74000010;15;15
74000011;15;15
74000012;15;15
75000010;15;15
75000011;15;15
75000012;15;15
75000013;15;15
76000010;15;15
76000011;15;15
76000012;15;15
76000013;15;15
76000014;15;15
76000015;15;15
76000017;15;15
76000018;15;15
76000019;15;15
76000020;15;15
76000021;15;15
76000022;15;15
76000023;15;15
76000024;15;15
76000025;15;15
76000026;15;15
76000027;15;15
76000028;15;15
76000032;15;15
76000033;15;15
76000034;15;15
76000035;15;15
76000036;15;15
76000037;15;15
76000038;15;15
76000039;15;15
76000040;15;15
76000041;15;15
76000043;15;15
76000044;15;15
76000045;15;15
76000046;15;15
76000047;15;15
76000048;15;15
76000049;15;15
76000050;15;15
76000051;15;15
76000053;15;15
76000056;15;15
76000057;15;15
76000058;15;15
77000010;15;15
77000013;15;15
77000014;15;15
77000015;15;15
77000016;15;15
77000017;15;15
77000018;15;15
77000019;15;15
77000020;15;15
77000021;15;15
77000022;15;15
77000023;15;15
77000024;15;15
77000025;15;15
77000026;15;15
77000027;15;15
77000028;15;15
77000029;15;15
77000030;15;15
77000031;15;15
77000032;15;15
77000034;15;15
77000035;15;15
77000036;15;15
77000037;15;15
77000038;15;15
77000039;15;15
77000040;15;15
77000041;15;15
77000042;15;15
77000043;15;15
77000044;15;15
77000045;15;15
78000001;15;15
78000010;15;15
78000011;15;15
78000012;15;15
78000013;15;15
78000014;15;15
78000015;15;15
78000016;15;15
78000017;15;15
78000018;15;15
78000019;15;15
78000020;15;15
78000021;15;15
78000022;15;15
78000023;15;15
78000024;15;15
78000025;15;15
78000026;15;15
78000101;15;15
79000010;15;15
79000011;15;15
79000012;15;15
79000013;15;15
79000014;15;15
79000015;15;15
79000016;15;15
79000017;15;15
79000018;15;15
79000019;15;15
79000020;15;15
79000021;15;15
79000022;15;15
79000023;15;15
80000010;15;15
80000011;15;15
80000012;15;15
81000010;15;15
81000011;15;15
81000012;15;15
81000013;15;15
81000014;15;15
81000015;15;15
81000016;15;15
81000017;15;15
81000018;15;15
81000019;15;15
81000020;15;15
81000021;15;15
81000022;15;15
81000023;15;15
81000024;15;15
81000025;15;15
81000026;15;15
81000027;15;15
81000028;15;15
81000029;15;15
81000030;15;15
81000032;15;15
81000033;15;15
81000034;15;15
81000035;15;15
81000037;15;15
81000038;15;15
81000039;15;15
81000041;15;15
81000042;15;15
81000043;15;15
81000044;15;15
81000045;15;15
81000046;15;15
81000047;15;15
81000048;15;15
81000049;15;15
81000050;15;15
81000051;15;15
82000010;15;15
82000011;15;15
82000012;15;15
82000013;15;15
83000010;15;15
83000011;15;15
83000012;15;15
83000013;15;15
83000015;15;15
83000016;15;15
83000017;15;15
83000018;15;15
83000020;15;15
83000021;15;15
83000022;15;15
83000023;15;15
83000024;15;15
83000025;15;15
83000026;15;15
83000027;15;15
83000034;15;15
83000035;15;15
83000036;15;15
83000037;15;15
83000038;15;15
83000039;15;15
83000040;15;15
83000041;15;15
83000042;15;15
83000044;15;15
83000045;15;15
83000046;15;15
83000047;15;15
83000048;15;15
83000049;15;15
83000050;15;15
83000052;15;15
83000053;15;15
83000055;15;15
83000056;15;15
83000057;15;15
83000058;15;15
83000059;15;15
83000062;15;15
83000063;15;15
83000064;15;15
83000065;15;15
83000066;15;15
83000067;15;15
83000068;15;15
83000069;15;15
83000070;15;15
83000071;15;15
83000072;15;15
83000073;15;15
83000074;15;15
83000075;15;15
83000076;15;15
83000077;15;15
85000010;15;15
85000011;15;15
86000010;15;15
86000011;15;15
86000013;15;15
86000014;15;15
86000015;15;15
86000016;15;15
86000018;15;15
87000010;15;15
87000011;15;15
87000012;15;15
87000014;15;15
87000015;15;15
87000016;15;15
87000017;15;15
87000018;15;15
87000019;15;15
87000020;15;15
87000022;15;15
87000023;15;15
87000024;15;15
87000025;15;15
87000026;15;15
87000027;15;15
88000010;15;15
88000011;15;15
88000012;15;15
88000013;15;15
88000014;15;15
88000015;15;15
88000016;15;15
88000017;15;15
88000018;15;15
88000019;15;15
88000020;15;15
88000021;15;15
89000010;15;15
89000011;15;15
89000012;15;15
89000013;15;15
90000010;15;15
90000011;15;15
90000012;15;15
90000013;15;15
90000014;15;15
90000015;15;15
90000016;15;15
90000017;15;15
90000019;15;15
90000020;15;15
90000021;15;15
90000022;15;15
90000024;15;15
90000025;15;15
90000029;15;15
90000031;15;15
90000032;15;15
90000033;15;15
91000010;15;15
91000011;15;15
91000012;15;15
91000013;15;15
91000014;15;15
91000015;15;15
91000016;15;15
91000017;15;15
91000018;15;15
91000019;15;15
91000020;15;15
91000021;15;15
91000022;15;15
91000023;15;15
91000024;15;15
91000025;15;15
91000026;15;15
91000027;15;15
92000010;15;15
92000011;15;15
92000012;15;15
92000013;15;15
92000014;15;15
92000015;15;15
92000016;15;15
92000017;15;15
92000018;15;15
92000019;15;15
92000020;15;15
92000021;15;15
93000010;15;15
93000011;15;15
93000012;15;15
93000013;15;15
93000014;15;15
93000016;15;15
93000017;15;15
93000019;15;15
93000020;15;15
93000022;15;15
94000010;15;15
94000011;15;15
95000010;15;15
95000011;15;15
95000012;15;15
95000013;15;15
95000014;15;15
95000016;15;15
240010011;15;15
240010012;15;15
240010021;15;15
240010022;15;15
340020091;15;15
340020092;15;15
341010031;15;15
341010032;15;15
360010181;15;15
360010182;15;15
360010251;15;15
360010252;15;15
360010561;15;15
360010562;15;15
360010681;15;15
360010682;15;15
360010901;15;15
360010902;15;15
360010921;15;15
360010922;15;15
380030031;15;15
380030032;15;15
410030011;15;15
410030012;15;15
410030261;15;15
410030262;15;15
410030291;15;15
410030292;15;15
410050021;15;15
410050022;15;15
