VakID;Maximum;Factor
10001012;999;1
10001013;999;1
10001014;999;1
10008801;999;1
11001001;999;1
11001002;999;1
11001003;999;1
11001004;999;1
11001005;999;1
11001006;999;1
11001007;999;1
11001008;999;1
11001009;999;1
11001010;999;1
11001011;999;1
11001012;999;1
11002001;999;1
11002002;999;1
16001001;999;1
16001002;999;1
16001003;999;1
16001004;999;1
16001005;999;1
24003001;999;1
24003002;999;1
24003003;999;1
24003004;999;1
24003005;999;1
24003006;999;1
24003007;999;1
24003008;999;1
24003009;999;1
24003010;999;1
24003011;999;1
24003012;999;1
24003013;999;1
24003014;999;1
24003015;999;1
24003016;999;1
24003017;999;1
24003018;999;1
24003019;999;1
24003020;999;1
38001001;999;1
38001002;999;1
38001003;999;1
38001004;999;1
38001005;999;1
38001006;999;1
38001007;999;1
38001008;999;1
38001009;999;1
38001010;999;1
38001011;999;1
38001012;999;1
38001013;999;1
38001014;999;1
38001015;999;1
38001016;999;1
38001017;999;1
38001018;999;1
38001019;999;1
38001020;999;1
38001021;999;1
38001022;999;1
38001023;999;1
38001024;999;1
38001025;999;1
38001026;999;1
38001027;999;1
38001028;999;1
38001029;999;1
38001030;999;1
38001031;999;1
38001032;999;1
38001035;999;1
38001036;999;1
38008801;999;1
40001001;999;1
40001002;999;1
40001003;999;1
40001004;999;1
40001005;999;1
40001006;999;1
40001007;999;1
40001008;999;1
41003031;999;1
41003032;999;1
41003033;999;1
41003034;999;1
41003035;999;1
41003036;999;1
41003037;999;1
41003038;999;1
41003039;999;1
41003040;999;1
41003041;999;1
41003042;999;1
41003043;999;1
41003044;999;1
41003045;999;1
41003046;999;1
41003047;999;1
41003048;999;1
41003049;999;1
41003050;999;1
41003051;999;1
41003052;999;1
41003053;999;1
41003054;999;1
41003055;999;1
41003056;999;1
41003057;999;1
41006001;999;1
42001001;999;1
42001002;999;1
42001003;999;1
42001004;999;1
42001005;999;1
42001006;999;1
42001007;999;1
42001008;999;1
42001009;999;1
42001010;999;1
42002001;999;1
42002002;999;1
42002003;999;1
42002004;999;1
42002005;999;1
42002006;999;1
42002007;999;1
42002008;999;1
42002009;999;1
42003001;999;1
42003002;999;1
42003003;999;1
42003004;999;1
42003005;999;1
43001001;999;1
43001002;999;1
43001003;999;1
43001004;999;1
43001005;999;1
43001006;999;1
43001007;999;1
43001008;999;1
43001009;999;1
43001010;999;1
43001011;999;1
43001012;999;1
43001013;999;1
43001014;999;1
43001015;999;1
43001016;999;1
43001017;999;1
43001018;999;1
43001019;999;1
43001020;999;1
43001021;999;1
43001022;999;1
43001023;999;1
43001024;999;1
43001025;999;1
43001026;999;1
43001027;999;1
43001028;999;1
43001029;999;1
43001030;999;1
43001031;999;1
43001032;999;1
43001033;999;1
43001034;999;1
43001035;999;1
43001036;999;1
43001037;999;1
43001038;999;1
43001039;999;1
43001040;999;1
43001041;999;1
43001042;999;1
43001043;999;1
43001044;999;1
43001045;999;1
43002001;999;1
43002003;999;1
43003001;999;1
43003002;999;1
43003003;999;1
43003004;999;1
43003005;999;1
43003006;999;1
43003007;999;1
43003008;999;1
43003009;999;1
43003010;999;1
43003011;999;1
43003012;999;1
43003013;999;1
43003014;999;1
43003015;999;1
43003016;999;1
43003017;999;1
43003018;999;1
43003019;999;1
43003020;999;1
43003021;999;1
43003022;999;1
43003023;999;1
43003024;999;1
43003025;999;1
43003026;999;1
43003027;999;1
43003028;999;1
43003029;999;1
43003031;999;1
43003032;999;1
43003033;999;1
43003034;999;1
43003035;999;1
43003036;999;1
43003037;999;1
43003038;999;1
43003039;999;1
43003040;999;1
43003041;999;1
43003042;999;1
43003043;999;1
43003044;999;1
43003045;999;1
43003046;999;1
43003047;999;1
43003048;999;1
43003049;999;1
43003050;999;1
43003051;999;1
43003052;999;1
43003053;999;1
43003054;999;1
43003055;999;1
43003056;999;1
43003057;999;1
43008801;999;1
47001001;999;1
47002001;999;1
47002002;999;1
47002003;999;1
47002004;999;1
47002005;999;1
47002006;999;1
47002007;999;1
47002008;999;1
47002009;999;1
47002010;999;1
47002011;999;1
48001001;999;1
48001002;999;1
48001003;999;1
48001004;999;1
48001005;999;1
48001006;999;1
48001007;999;1
48001008;999;1
48001009;999;1
48001010;999;1
48001011;999;1
48001012;999;1
48001013;999;1
48001014;999;1
48001015;999;1
48001016;999;1
48001017;999;1
48001018;999;1
48001019;999;1
48001020;999;1
48001021;999;1
48001022;999;1
48001023;999;1
48001024;999;1
48001025;999;1
48001026;999;1
48001027;999;1
48001028;999;1
48001029;999;1
48001030;999;1
48001031;999;1
48001032;999;1
48001033;999;1
48001034;999;1
48001035;999;1
48001036;999;1
48001037;999;1
48001038;999;1
48001039;999;1
48001040;999;1
48001041;999;1
48001042;999;1
48001043;999;1
48001044;999;1
48001045;999;1
48001046;999;1
48001047;999;1
48001048;999;1
48001049;999;1
48001050;999;1
48001051;999;1
48001052;999;1
48001053;999;1
48001054;999;1
48001055;999;1
48001056;999;1
49001002;999;1
49001003;999;1
49001004;999;1
49001005;999;1
49001006;999;1
49001007;999;1
49001008;999;1
49001009;999;1
49001010;999;1
49001011;999;1
49001012;999;1
49001013;999;1
49001014;999;1
49001015;999;1
49001016;999;1
49001017;999;1
49001018;999;1
49002001;999;1
49002002;999;1
49002003;999;1
49002004;999;1
49002005;999;1
49002006;999;1
49002007;999;1
49002008;999;1
49002009;999;1
49002010;999;1
49002011;999;1
49002012;999;1
49002013;999;1
49002014;999;1
49002015;999;1
49002016;999;1
49002017;999;1
49003001;999;1
49003002;999;1
49003003;999;1
49003004;999;1
49003005;999;1
49003006;999;1
49003007;999;1
49003008;999;1
49003009;999;1
49003010;999;1
49003011;999;1
49003012;999;1
49003013;999;1
50001001;999;1
50001002;999;1
50001003;999;1
50001004;999;1
50001005;999;1
50001006;999;1
50001007;999;1
50001008;999;1
50001009;999;1
50001010;999;1
50002001;999;1
50002002;999;1
50002003;999;1
50002004;999;1
50003001;999;1
50003002;999;1
51001001;999;1
51001002;999;1
51001003;999;1
51001004;999;1
51002001;999;1
51002002;999;1
51002003;999;1
51002004;999;1
51002005;999;1
51002006;999;1
51002007;999;1
51002008;999;1
51002009;999;1
51002010;999;1
51002011;999;1
51003001;999;1
51003002;999;1
51003003;999;1
52001001;999;1
52001002;999;1
52001003;999;1
52001004;999;1
52001005;999;1
52001006;999;1
52001007;999;1
52001012;999;1
52001013;999;1
52001014;999;1
52001015;999;1
52001016;999;1
52001017;999;1
52001019;999;1
52001020;999;1
52002001;999;1
52002002;999;1
52002003;999;1
52002004;999;1
52002005;999;1
52002006;999;1
52002007;999;1
52002008;999;1
52002009;999;1
52002010;999;1
52002011;999;1
52002012;999;1
52002013;999;1
52002014;999;1
52002015;999;1
52002016;999;1
52002017;999;1
52002018;999;1
52002019;999;1
52003001;999;1
52003002;999;1
52003003;999;1
52003004;999;1
52003005;999;1
52003007;999;1
52003008;999;1
52003009;999;1
52003010;999;1
52003011;999;1
52003012;999;1
52003013;999;1
52003014;999;1
52003015;999;1
52003016;999;1
52003017;999;1
52003018;999;1
52008801;999;1
52008802;999;1
52008803;999;1
52008804;999;1
53003001;999;1
53003002;999;1
53003003;999;1
53003004;999;1
53003005;999;1
53003006;999;1
53003007;999;1
53003008;999;1
53003009;999;1
53003010;999;1
53003011;999;1
53003012;999;1
53003013;999;1
53003014;999;1
53003015;999;1
53003016;999;1
53003017;999;1
53003018;999;1
53003019;999;1
53003020;999;1
53003021;999;1
53003022;999;1
53003023;999;1
53003024;999;1
53003025;999;1
53003026;999;1
53003027;999;1
53003028;999;1
53003029;999;1
53003030;999;1
53003031;999;1
53003032;999;1
53003033;999;1
53003034;999;1
53003035;999;1
53003036;999;1
53003037;999;1
53003038;999;1
53003039;999;1
53003040;999;1
53003041;999;1
53003042;999;1
24001003;999;1
24001004;999;1
24001005;999;1
24001006;999;1
24001007;999;1
24001008;999;1
24001009;999;1
24001010;999;1
24001011;999;1
24001012;999;1
24001013;999;1
24001014;999;1
24001015;999;1
24001016;999;1
24002012;999;1
35001000;999;1
35001001;999;1
35001002;999;1
35001003;999;1
35001004;999;1
35001008;999;1
35001009;999;1
35001010;999;1
35001011;999;1
35001012;999;1
35001013;999;1
35008801;999;1
36001002;999;1
36001003;999;1
36001004;999;1
36001005;999;1
36001006;999;1
36001007;999;1
36001008;999;1
36001009;999;1
36001010;999;1
36001011;999;1
36001012;999;1
36001013;999;1
36001014;999;1
36001015;999;1
36001016;999;1
36001017;999;1
36001019;999;1
36001020;999;1
36001021;999;1
36001022;999;1
36001023;999;1
36001024;999;1
36001026;999;1
36001027;999;1
36001028;999;1
36001029;999;1
36001030;999;1
36001031;999;1
36001032;999;1
36001033;999;1
36001034;999;1
36001035;999;1
36001036;999;1
36001037;999;1
36001038;999;1
36001039;999;1
36001040;999;1
36001041;999;1
36001042;999;1
36001043;999;1
36001044;999;1
36001045;999;1
36001046;999;1
36001047;999;1
36001048;999;1
36001049;999;1
36001050;999;1
36001051;999;1
36001052;999;1
36001053;999;1
36001054;999;1
36001055;999;1
36001057;999;1
36001058;999;1
36001059;999;1
36001060;999;1
36001061;999;1
36001062;999;1
36001063;999;1
36001064;999;1
36001065;999;1
36001066;999;1
36001067;999;1
36001069;999;1
36001070;999;1
36001071;999;1
36001072;999;1
36001073;999;1
36001074;999;1
36001075;999;1
36001076;999;1
36001077;999;1
36001078;999;1
36001079;999;1
36001080;999;1
36001081;999;1
36001082;999;1
36001083;999;1
36001084;999;1
36001085;999;1
36001086;999;1
36001087;999;1
36001088;999;1
36001089;999;1
36001091;999;1
36001093;999;1
36001094;999;1
36001095;999;1
36001096;999;1
36001097;999;1
36001098;999;1
36001099;999;1
36001100;999;1
36001101;999;1
36001102;999;1
36001103;999;1
36002001;999;1
36003001;999;1
36003002;999;1
36003003;999;1
36003004;999;1
36003005;999;1
36003006;999;1
36101000;999;1
36101001;999;1
36101002;999;1
36101004;999;1
37001000;999;1
37001001;999;1
37001002;999;1
38002001;999;1
38002002;999;1
38002003;999;1
38002004;999;1
38002005;999;1
38003001;999;1
38003002;999;1
38003004;999;1
38003005;999;1
38003006;999;1
38003007;999;1
38003008;999;1
38003009;999;1
38003010;999;1
38003011;999;1
38003012;999;1
38003013;999;1
38003014;999;1
38003015;999;1
38003016;999;1
38003017;999;1
38003018;999;1
38003019;999;1
39001001;999;1
39001002;999;1
39001003;999;1
39001004;999;1
39001005;999;1
39001006;999;1
39001007;999;1
40002001;999;1
40002002;999;1
40002003;999;1
40002004;999;1
40002005;999;1
40002006;999;1
40002007;999;1
40002008;999;1
40002009;999;1
40002010;999;1
41003002;999;1
41003003;999;1
41003004;999;1
41003005;999;1
41003006;999;1
41003007;999;1
41003008;999;1
41003009;999;1
41003010;999;1
41003011;999;1
41003012;999;1
41003013;999;1
41003014;999;1
41003015;999;1
41003016;999;1
41003017;999;1
41003018;999;1
41003019;999;1
41003020;999;1
41003021;999;1
41003022;999;1
41003023;999;1
41003024;999;1
41003025;999;1
41003027;999;1
41003028;999;1
54000010;999;1
54000011;999;1
54000012;999;1
54000013;999;1
54000014;999;1
54000015;999;1
54000016;999;1
54000017;999;1
54000018;999;1
54000019;999;1
54000020;999;1
54000021;999;1
54000022;999;1
54000023;999;1
54000024;999;1
54000025;999;1
54000026;999;1
54000027;999;1
54000028;999;1
54000029;999;1
54000030;999;1
54000031;999;1
54000032;999;1
54000033;999;1
54000034;999;1
54000035;999;1
54000036;999;1
54000037;999;1
54000038;999;1
54000039;999;1
54000040;999;1
54000041;999;1
54000042;999;1
54000043;999;1
54000044;999;1
54000045;999;1
54000046;999;1
54000047;999;1
55000010;999;1
55000011;999;1
55000012;999;1
55000013;999;1
55000014;999;1
55000015;999;1
55000016;999;1
55000017;999;1
55000018;999;1
55000019;999;1
55000020;999;1
55000021;999;1
55000022;999;1
55000023;999;1
55000024;999;1
55000025;999;1
55000026;999;1
55000027;999;1
55000028;999;1
55000029;999;1
55000030;999;1
55000031;999;1
55000032;999;1
55000033;999;1
55000034;999;1
55000035;999;1
55000036;999;1
55000037;999;1
55000038;999;1
55000039;999;1
55000040;999;1
55000041;999;1
56000010;999;1
56000011;999;1
57000010;999;1
57000011;999;1
57000012;999;1
57000013;999;1
57000014;999;1
57000015;999;1
57000016;999;1
59000010;999;1
59000011;999;1
59000012;999;1
60000010;999;1
60000011;999;1
60000012;999;1
60000013;999;1
60000014;999;1
60000015;999;1
60000016;999;1
60000017;999;1
60000018;999;1
61100001;999;1
61100003;999;1
61100004;999;1
61100005;999;1
61100006;999;1
61100002;999;1
61100010;999;1
61100009;999;1
61100008;999;1
62100009;999;1
62100001;999;1
62100003;999;1
62100004;999;1
62100005;999;1
62100006;999;1
62100007;999;1
62100008;999;1
62100002;999;1
63100002;999;1
63100001;999;1
63200002;999;1
63200001;999;1
64100003;999;1
64100004;999;1
64100005;999;1
64100006;999;1
64100002;999;1
64100001;999;1
65000010;999;1
65000011;999;1
65000012;999;1
65000013;999;1
65000014;999;1
65000015;999;1
65000016;999;1
66000010;999;1
67000010;999;1
68000010;999;1
68000011;999;1
68000012;999;1
68000013;999;1
68000014;999;1
68000015;999;1
68000016;999;1
68000017;999;1
68000018;999;1
68000019;999;1
68000020;999;1
68000021;999;1
68000022;999;1
68000023;999;1
68000024;999;1
68000025;999;1
68000026;999;1
68000027;999;1
68000028;999;1
68000029;999;1
68000030;999;1
68000031;999;1
68000032;999;1
68000033;999;1
68000034;999;1
68000035;999;1
68000036;999;1
68000037;999;1
68000038;999;1
68000039;999;1
68000040;999;1
68000041;999;1
68000042;999;1
68000043;999;1
68000044;999;1
68000045;999;1
68000046;999;1
68000047;999;1
68000048;999;1
68000049;999;1
68000050;999;1
68000051;999;1
68000052;999;1
68000053;999;1
68000054;999;1
68000055;999;1
68000056;999;1
68000057;999;1
68000058;999;1
68000059;999;1
69000010;999;1
69000011;999;1
69000012;999;1
69000013;999;1
69000014;999;1
69000015;999;1
69000016;999;1
69000017;999;1
69000018;999;1
69000019;999;1
69000020;999;1
69000021;999;1
69000022;999;1
69000023;999;1
69000024;999;1
69000025;999;1
69000026;999;1
69000027;999;1
69000028;999;1
69000029;999;1
69000030;999;1
69000031;999;1
69000032;999;1
69000033;999;1
69000034;999;1
69000035;999;1
69000036;999;1
69000037;999;1
69000038;999;1
69000039;999;1
69000040;999;1
69000041;999;1
69000042;999;1
69000043;999;1
70000010;999;1
70000011;999;1
70000012;999;1
70000013;999;1
70000014;999;1
71000010;999;1
72000010;999;1
73000010;999;1
73000011;999;1
73000012;999;1
73000013;999;1
74000010;999;1
74000011;999;1
74000012;999;1
75000010;999;1
75000011;999;1
75000012;999;1
75000013;999;1
76000010;999;1
76000011;999;1
76000012;999;1
76000013;999;1
76000014;999;1
76000015;999;1
76000016;999;1
76000017;999;1
76000018;999;1
76000019;999;1
76000020;999;1
76000021;999;1
76000022;999;1
76000023;999;1
76000024;999;1
76000025;999;1
76000026;999;1
76000027;999;1
76000028;999;1
76000029;999;1
76000030;999;1
76000031;999;1
76000032;999;1
76000033;999;1
76000034;999;1
76000035;999;1
76000036;999;1
76000037;999;1
76000038;999;1
76000039;999;1
76000040;999;1
76000041;999;1
76000042;999;1
76000043;999;1
76000044;999;1
76000045;999;1
76000046;999;1
76000047;999;1
76000048;999;1
76000049;999;1
76000050;999;1
76000051;999;1
76000053;999;1
76000056;999;1
76000057;999;1
76000058;999;1
77000010;999;1
77000011;999;1
77000012;999;1
77000013;999;1
77000014;999;1
77000015;999;1
77000016;999;1
77000017;999;1
77000018;999;1
77000019;999;1
77000020;999;1
77000021;999;1
77000022;999;1
77000023;999;1
77000024;999;1
77000025;999;1
77000026;999;1
77000027;999;1
77000028;999;1
77000029;999;1
77000030;999;1
77000031;999;1
77000032;999;1
77000034;999;1
77000035;999;1
77000036;999;1
77000037;999;1
77000038;999;1
77000039;999;1
77000040;999;1
77000041;999;1
77000042;999;1
77000043;999;1
77000044;999;1
77000045;999;1
77000046;999;1
77000047;999;1
77000048;999;1
77000049;999;1
77000050;999;1
77000051;999;1
77000052;999;1
77000053;999;1
78000010;999;1
78000011;999;1
78000012;999;1
78000013;999;1
78000014;999;1
78000015;999;1
78000016;999;1
78000017;999;1
78000018;999;1
78000019;999;1
78000020;999;1
78000021;999;1
78000022;999;1
78000023;999;1
78000024;999;1
78000025;999;1
78000026;999;1
79000010;999;1
79000011;999;1
79000012;999;1
79000013;999;1
79000014;999;1
79000015;999;1
79000016;999;1
79000017;999;1
79000018;999;1
79000019;999;1
79000020;999;1
79000021;999;1
79000022;999;1
79000023;999;1
80000010;999;1
80000011;999;1
80000012;999;1
81000010;999;1
81000011;999;1
81000012;999;1
81000013;999;1
81000014;999;1
81000015;999;1
81000016;999;1
81000017;999;1
81000018;999;1
81000019;999;1
81000020;999;1
81000021;999;1
81000022;999;1
81000023;999;1
81000024;999;1
81000025;999;1
81000026;999;1
81000027;999;1
81000028;999;1
81000029;999;1
81000030;999;1
81000032;999;1
81000033;999;1
81000034;999;1
81000035;999;1
81000036;999;1
81000037;999;1
81000038;999;1
81000039;999;1
81000041;999;1
81000042;999;1
81000043;999;1
81000044;999;1
81000045;999;1
81000046;999;1
81000047;999;1
81000048;999;1
81000049;999;1
81000050;999;1
81000051;999;1
82000010;999;1
82000011;999;1
82000012;999;1
82000013;999;1
82000014;999;1
83000010;999;1
83000011;999;1
83000012;999;1
83000013;999;1
83000015;999;1
83000016;999;1
83000017;999;1
83000018;999;1
83000020;999;1
83000021;999;1
83000022;999;1
83000023;999;1
83000024;999;1
83000025;999;1
83000026;999;1
83000027;999;1
83000029;999;1
83000030;999;1
83000032;999;1
83000033;999;1
83000034;999;1
83000035;999;1
83000036;999;1
83000037;999;1
83000038;999;1
83000039;999;1
83000040;999;1
83000041;999;1
83000042;999;1
83000044;999;1
83000045;999;1
83000046;999;1
83000047;999;1
83000048;999;1
83000049;999;1
83000050;999;1
83000051;999;1
83000052;999;1
83000053;999;1
83000055;999;1
83000056;999;1
83000057;999;1
83000058;999;1
83000059;999;1
83000061;999;1
83000062;999;1
83000063;999;1
83000064;999;1
83000065;999;1
83000066;999;1
83000067;999;1
83000068;999;1
83000069;999;1
83000070;999;1
83000071;999;1
83000072;999;1
83000073;999;1
83000074;999;1
83000075;999;1
83000076;999;1
83000077;999;1
83000078;999;1
85000010;999;1
85000011;999;1
86000010;999;1
86000011;999;1
86000013;999;1
86000014;999;1
86000015;999;1
86000016;999;1
86000018;999;1
86000019;999;1
87000010;999;1
87000011;999;1
87000012;999;1
87000014;999;1
87000015;999;1
87000016;999;1
87000017;999;1
87000018;999;1
87000019;999;1
87000020;999;1
87000022;999;1
87000023;999;1
87000024;999;1
87000025;999;1
87000026;999;1
87000027;999;1
87000029;999;1
88000010;999;1
88000011;999;1
88000012;999;1
88000013;999;1
88000014;999;1
88000015;999;1
88000016;999;1
88000017;999;1
88000018;999;1
88000019;999;1
88000020;999;1
88000021;999;1
89000010;999;1
89000011;999;1
89000012;999;1
89000013;999;1
90000010;999;1
90000011;999;1
90000012;999;1
90000013;999;1
90000014;999;1
90000015;999;1
90000016;999;1
90000017;999;1
90000019;999;1
90000020;999;1
90000021;999;1
90000022;999;1
90000023;999;1
90000024;999;1
90000025;999;1
90000028;999;1
90000029;999;1
90000030;999;1
90000031;999;1
90000032;999;1
90000033;999;1
91000010;999;1
91000011;999;1
91000012;999;1
91000013;999;1
91000014;999;1
91000015;999;1
91000016;999;1
91000017;999;1
91000018;999;1
91000019;999;1
91000020;999;1
91000021;999;1
91000022;999;1
91000023;999;1
91000024;999;1
91000025;999;1
91000026;999;1
91000027;999;1
92000010;999;1
92000011;999;1
92000012;999;1
92000013;999;1
92000014;999;1
92000015;999;1
92000016;999;1
92000017;999;1
92000018;999;1
92000019;999;1
92000020;999;1
92000021;999;1
93000010;999;1
93000011;999;1
93000012;999;1
93000013;999;1
93000014;999;1
93000016;999;1
93000017;999;1
93000019;999;1
93000020;999;1
93000022;999;1
94000010;999;1
94000011;999;1
95000010;999;1
95000011;999;1
95000012;999;1
95000013;999;1
95000014;999;1
95000016;999;1
240010011;999;1
240010012;999;1
240010021;999;1
240010022;999;1
360010181;999;1
360010182;999;1
360010251;999;1
360010252;999;1
360010561;999;1
360010562;999;1
360010681;999;1
360010682;999;1
360010901;999;1
360010902;999;1
360010921;999;1
360010922;999;1
380030031;999;1
380030032;999;1
410030011;999;1
410030012;999;1
410030261;999;1
410030262;999;1
410030291;999;1
410030292;999;1
410050021;999;1
410050022;999;1
16003001;999;1
16003002;999;1
16003003;999;1
16003004;999;1
16003005;999;1
16003006;999;1
16003007;999;1
16003008;999;1
16003009;999;1
16003010;999;1
16003011;999;1
16003012;999;1
16003013;999;1
16003014;999;1
16003015;999;1
16003016;999;1
16003017;999;1
16003018;999;1
16003019;999;1
16003020;999;1
16003021;999;1
16003022;999;1
16003023;999;1
16003024;999;1
16003025;999;1
16003026;999;1
16003027;999;1
16003028;999;1
16003029;999;1
16003030;999;1
16003031;999;1
16003032;999;1
16003033;999;1
16003034;999;1
43004001;999;1
43004003;999;1
43005001;999;1
43005002;999;1
43005003;999;1
43005004;999;1
43005005;999;1
43005006;999;1
43005007;999;1
43005008;999;1
43005009;999;1
43005010;999;1
43005011;999;1
43005012;999;1
43005013;999;1
43003058;999;1
43003059;999;1
43003060;999;1
43003061;999;1
43003062;999;1
43003063;999;1
43003064;999;1
43003065;999;1
43003066;999;1
43003067;999;1
43003068;999;1
43003069;999;1
43003070;999;1
43003071;999;1
43003072;999;1
43003073;999;1
43003074;999;1
43003075;999;1
43003076;999;1
43003077;999;1
43003078;999;1
43003079;999;1
43003080;999;1
43003081;999;1
43003082;999;1
43003083;999;1
43003084;999;1
43003085;999;1
43003086;999;1
43003087;999;1
43003088;999;1
43003089;999;1
43003090;999;1
43003091;999;1
43006001;999;1
15002012;999;1
15002013;999;1
15002014;999;1
15002015;999;1
15002016;999;1
15002017;999;1
15002018;999;1
15002019;999;1
15002020;999;1
15002021;999;1
44001001;999;1
44001002;999;1
44001003;999;1
44001004;999;1
44001005;999;1
44001006;999;1
44001007;999;1
44001010;999;1
44001011;999;1
44001012;999;1
44002001;999;1
44002003;999;1
44003001;999;1
44003002;999;1
44003003;999;1
44003004;999;1
44003005;999;1
44003006;999;1
44003007;999;1
44003008;999;1
44003009;999;1
44003010;999;1
44003011;999;1
44003012;999;1
44003013;999;1
44003014;999;1
44003015;999;1
44003016;999;1
44003017;999;1
44003018;999;1
44003019;999;1
44003020;999;1
44003021;999;1
44003022;999;1
44004001;999;1
45001001;999;1
45001002;999;1
45001003;999;1
45001004;999;1
45001005;999;1
15001001;999;1
15001002;999;1
15001003;999;1
15001004;999;1
15001005;999;1
15001006;999;1
15001007;999;1
15001008;999;1
15001009;999;1
15001010;999;1
15001011;999;1
15001012;999;1
15001013;999;1
15001014;999;1
15001015;999;1
15001016;999;1
15001017;999;1
15001018;999;1
15001019;999;1
15001020;999;1
15001021;999;1
15002001;999;1
15002002;999;1
15002003;999;1
15002004;999;1
15002005;999;1
15002006;999;1
15002007;999;1
15002008;999;1
15002009;999;1
15002010;999;1
15002011;999;1
47001003;999;1
47001002;999;1
47001008;999;1
47001007;999;1
47001006;999;1
47001005;999;1
47001004;999;1
