VakID;OLD [jaar]
10001012;50
10001013;50
10001014;50
10008801;50
11001001;50
11001002;50
11001003;50
11001004;50
11001005;50
11001006;50
11001007;50
11001008;50
11001009;50
11001010;50
11001011;50
11001012;50
11002001;50
11002002;50
16001001;50
16001002;50
16001003;50
16001004;50
16001005;50
240010011;50
240010012;50
240010021;50
240010022;50
24001003;50
24001004;50
24001005;50
24001006;50
24001007;50
24001008;50
24001009;50
24001010;50
24001011;50
24001012;50
24001013;50
24001014;50
24001015;50
24001016;50
24002012;50
24003001;50
24003002;50
24003003;50
24003004;50
24003005;50
24003006;50
24003007;50
24003008;50
24003009;50
24003010;50
24003011;50
24003012;50
24003013;50
24003014;50
24003015;50
24003016;50
24003017;50
24003018;50
24003019;50
24003020;50
35001000;50
35001001;50
35001002;50
35001003;50
35001004;50
35001008;50
35001009;50
35001010;50
35001011;50
35001012;50
35001013;50
35002001;50
35002002;50
35002003;50
35002004;50
35002005;50
35002006;50
35002007;50
35002008;50
35002009;50
35002010;50
35002011;50
35002012;50
35002013;50
35002014;50
35002015;50
35008801;50
36001002;50
36001003;50
36001004;50
36001005;50
36001006;50
36001007;50
36001008;50
36001009;50
36001010;50
36001011;50
36001012;50
36001013;50
36001014;50
36001015;50
36001016;50
36001017;50
360010181;50
360010182;50
36001019;50
36001020;50
36001021;50
36001022;50
36001023;50
36001024;50
360010251;50
360010252;50
36001026;50
36001027;50
36001028;50
36001029;50
36001030;50
36001031;50
36001032;50
36001033;50
36001034;50
36001035;50
36001036;50
36001037;50
36001038;50
36001039;50
36001040;50
36001041;50
36001042;50
36001043;50
36001044;50
36001045;50
36001046;50
36001047;50
36001048;50
36001049;50
36001050;50
36001051;50
36001052;50
36001053;50
36001054;50
36001055;50
360010561;50
360010562;50
36001057;50
36001058;50
36001059;50
36001060;50
36001061;50
36001062;50
36001063;50
36001064;50
36001065;50
36001066;50
36001067;50
360010681;50
360010682;50
36001069;50
36001070;50
36001071;50
36001072;50
36001073;50
36001074;50
36001075;50
36001076;50
36001077;50
36001078;50
36001079;50
36001080;50
36001081;50
36001082;50
36001083;50
36001084;50
36001085;50
36001086;50
36001087;50
36001088;50
36001089;50
360010901;50
360010902;50
36001091;50
360010921;50
360010922;50
36001093;50
36001094;50
36001095;50
36001096;50
36001097;50
36001098;50
36001099;50
36001100;50
36001101;50
36001102;50
36001103;50
36002001;50
36003001;50
36003002;50
36003003;50
36003004;50
36003005;50
36003006;50
36101000;50
36101001;50
36101002;50
36101004;50
37001001;50
37001002;50
38001001;50
38001002;50
38001003;50
38001004;50
38001005;50
38001006;50
38001007;50
38001008;50
38001009;50
38001010;50
38001011;50
38001012;50
38001013;50
38001014;50
38001015;50
38001016;50
38001017;50
38001018;50
38001019;50
38001020;50
38001021;50
38001022;50
38001023;50
38001024;50
38001025;50
38001026;50
38001027;50
38001028;50
38001029;50
38001030;50
38001031;50
38001032;50
38001035;50
38001036;50
38002001;50
38002002;50
38002003;50
38002004;50
38002005;50
38003001;50
38003002;50
380030031;50
380030032;50
38003004;50
38003005;50
38003006;50
38003007;50
38003008;50
38003009;50
38003010;50
38003011;50
38003012;50
38003013;50
38003014;50
38003015;50
38003016;50
38003017;50
38003018;50
38003019;50
38008801;50
39001001;50
39001002;50
39001003;50
39001004;50
39001005;50
39001006;50
39001007;50
40001001;50
40001002;50
40001003;50
40001004;50
40001005;50
40001006;50
40001007;50
40001008;50
40002001;50
40002002;50
40002003;50
40002004;50
40002005;50
40002006;50
40002007;50
40002008;50
40002009;50
40002010;50
410030011;50
410030012;50
41003002;50
41003003;50
41003004;50
41003005;50
41003006;50
41003007;50
41003008;50
41003009;50
41003010;50
41003011;50
41003012;50
41003013;50
41003014;50
41003015;50
41003016;50
41003017;50
41003018;50
41003019;50
41003020;50
41003021;50
41003022;50
41003023;50
41003024;50
41003025;50
410030261;50
410030262;50
41003027;50
41003028;50
410030291;50
410030292;50
41003031;50
41003032;50
41003033;50
41003034;50
41003035;50
41003036;50
41003037;50
41003038;50
41003039;50
41003040;50
41003041;50
41003042;50
41003043;50
41003044;50
41003045;50
41003046;50
41003047;50
41003048;50
41003049;50
41003050;50
41003051;50
41003052;50
41003053;50
41003054;50
41003055;50
41003056;50
41003057;50
410050021;50
410050022;50
41006001;50
42001001;50
42001002;50
42001003;50
42001004;50
42001005;50
42001006;50
42001007;50
42001008;50
42001009;50
42001010;50
42002001;50
42002002;50
42002003;50
42002004;50
42002005;50
42002006;50
42002007;50
42002008;50
42002009;50
42003001;50
42003002;50
42003003;50
42003004;50
42003005;50
43001001;50
43001002;50
43001003;50
43001004;50
43001005;50
43001006;50
43001007;50
43001008;50
43001009;50
43001010;50
43001011;50
43001012;50
43001013;50
43001014;50
43001015;50
43001016;50
43001017;50
43001018;50
43001019;50
43001020;50
43001021;50
43001022;50
43001023;50
43001024;50
43001025;50
43001026;50
43001027;50
43001028;50
43001029;50
43001030;50
43001031;50
43001032;50
43001033;50
43001034;50
43001035;50
43001036;50
43001037;50
43001038;50
43001039;50
43001040;50
43001041;50
43001042;50
43001043;50
43001044;50
43001045;50
43002001;50
43002003;50
43003001;50
43003002;50
43003003;50
43003004;50
43003005;50
43003006;50
43003007;50
43003008;50
43003009;50
43003010;50
43003011;50
43003012;50
43003013;50
43003014;50
43003015;50
43003016;50
43003017;50
43003018;50
43003019;50
43003020;50
43003021;50
43003022;50
43003023;50
43003024;50
43003025;50
43003026;50
43003027;50
43003028;50
43003029;50
43003031;50
43003032;50
43003033;50
43003034;50
43003035;50
43003036;50
43003037;50
43003038;50
43003039;50
43003040;50
43003041;50
43003042;50
43003043;50
43003044;50
43003045;50
43003046;50
43003047;50
43003048;50
43003049;50
43003050;50
43003051;50
43003052;50
43003053;50
43003054;50
43003055;50
43003056;50
43003057;50
43008801;50
47001001;50
47002001;50
47002002;50
47002003;50
47002004;50
47002005;50
47002006;50
47002007;50
47002008;50
47002009;50
47002010;50
47002011;50
48001001;50
48001002;50
48001003;50
48001004;50
48001005;50
48001006;50
48001007;50
48001008;50
48001009;50
48001010;50
48001011;50
48001012;50
48001013;50
48001014;50
48001015;50
48001016;50
48001017;50
48001018;50
48001019;50
48001020;50
48001021;50
48001022;50
48001023;50
48001024;50
48001025;50
48001026;50
48001027;50
48001028;50
48001029;50
48001030;50
48001031;50
48001032;50
48001033;50
48001034;50
48001035;50
48001036;50
48001037;50
48001038;50
48001039;50
48001040;50
48001041;50
48001042;50
48001043;50
48001044;50
48001045;50
48001046;50
48001047;50
48001048;50
48001049;50
48001050;50
48001051;50
48001052;50
48001053;50
48001054;50
48001055;50
48001056;50
49001002;50
49001003;50
49001004;50
49001005;50
49001006;50
49001007;50
49001008;50
49001009;50
49001010;50
49001011;50
49001012;50
49001013;50
49001014;50
49001015;50
49001016;50
49001017;50
49001018;50
49002001;50
49002002;50
49002003;50
49002004;50
49002005;50
49002006;50
49002007;50
49002008;50
49002009;50
49002010;50
49002011;50
49002012;50
49002013;50
49002014;50
49002015;50
49002016;50
49002017;50
49003001;50
49003002;50
49003003;50
49003004;50
49003005;50
49003006;50
49003007;50
49003008;50
49003009;50
49003010;50
49003011;50
49003012;50
49003013;50
50001001;50
50001002;50
50001003;50
50001004;50
50001005;50
50001006;50
50001007;50
50001008;50
50001009;50
50001010;50
50002001;50
50002002;50
50002003;50
50002004;50
50003001;50
50003002;50
51001001;50
51001002;50
51001003;50
51001004;50
51002001;50
51002002;50
51002003;50
51002004;50
51002005;50
51002006;50
51002007;50
51002008;50
51002009;50
51002010;50
51002011;50
51003001;50
51003002;50
51003003;50
52001001;50
52001002;50
52001003;50
52001004;50
52001005;50
52001006;50
52001007;50
52001012;50
52001013;50
52001014;50
52001015;50
52001016;50
52001017;50
52001019;50
52001020;50
52002001;50
52002002;50
52002003;50
52002004;50
52002005;50
52002006;50
52002007;50
52002008;50
52002009;50
52002010;50
52002011;50
52002012;50
52002013;50
52002014;50
52002015;50
52002016;50
52002017;50
52002018;50
52002019;50
52003001;50
52003002;50
52003003;50
52003004;50
52003005;50
52003007;50
52003008;50
52003009;50
52003010;50
52003011;50
52003012;50
52003013;50
52003014;50
52003015;50
52003016;50
52003017;50
52003018;50
52008801;50
52008802;50
52008803;50
52008804;50
53003001;50
53003002;50
53003003;50
53003004;50
53003005;50
53003006;50
53003007;50
53003008;50
53003009;50
53003010;50
53003011;50
53003012;50
53003013;50
53003014;50
53003015;50
53003016;50
53003017;50
53003018;50
53003019;50
53003020;50
53003021;50
53003022;50
53003023;50
53003024;50
53003025;50
53003026;50
53003027;50
53003028;50
53003029;50
53003030;50
53003031;50
53003032;50
53003033;50
53003034;50
53003035;50
53003036;50
53003037;50
53003038;50
53003039;50
53003040;50
53003041;50
53003042;50
54000010;50
54000011;50
54000012;50
54000013;50
54000014;50
54000015;50
54000016;50
54000017;50
54000018;50
54000019;50
54000020;50
54000021;50
54000022;50
54000023;50
54000024;50
54000025;50
54000026;50
54000027;50
54000028;50
54000029;50
54000030;50
54000031;50
54000032;50
54000033;50
54000034;50
54000035;50
54000036;50
54000037;50
54000038;50
54000039;50
54000040;50
54000041;50
54000042;50
54000043;50
54000044;50
54000045;50
54000046;50
54000047;50
55000010;50
55000011;50
55000012;50
55000013;50
55000014;50
55000015;50
55000016;50
55000017;50
55000018;50
55000019;50
55000020;50
55000021;50
55000022;50
55000023;50
55000024;50
55000025;50
55000026;50
55000027;50
55000028;50
55000029;50
55000030;50
55000031;50
55000032;50
55000033;50
55000034;50
55000035;50
55000036;50
55000037;50
55000038;50
55000039;50
55000040;50
55000041;50
56000010;50
56000011;50
57000010;50
57000011;50
57000012;50
57000013;50
57000014;50
57000015;50
57000016;50
58000001;50
59000010;50
59000011;50
59000012;50
60000010;50
60000011;50
60000012;50
60000013;50
60000014;50
60000015;50
60000016;50
60000017;50
60000018;50
61100001;50
61100003;50
61100004;50
61100005;50
61100006;50
61100007;50
61100002;50
61100010;50
61100009;50
61100008;50
62100009;50
62100001;50
62100003;50
62100004;50
62100005;50
62100006;50
62100007;50
62100008;50
62100002;50
63100002;50
63100001;50
63200002;50
63200001;50
64100003;50
64100004;50
64100005;50
64100006;50
64100002;50
64100001;50
65000010;50
65000011;50
65000012;50
65000013;50
65000014;50
65000015;50
65000016;50
66000010;50
67000010;50
68000010;50
68000011;50
68000012;50
68000013;50
68000014;50
68000015;50
68000016;50
68000017;50
68000018;50
68000019;50
68000020;50
68000021;50
68000022;50
68000023;50
68000024;50
68000025;50
68000026;50
68000027;50
68000028;50
68000029;50
68000030;50
68000031;50
68000032;50
68000033;50
68000034;50
68000035;50
68000036;50
68000037;50
68000038;50
68000039;50
68000040;50
68000041;50
68000042;50
68000043;50
68000044;50
68000045;50
68000046;50
68000047;50
68000048;50
68000049;50
68000050;50
68000051;50
68000052;50
68000053;50
68000054;50
68000055;50
68000056;50
68000057;50
68000058;50
68000059;50
69000010;50
69000011;50
69000012;50
69000013;50
69000014;50
69000015;50
69000016;50
69000017;50
69000018;50
69000019;50
69000020;50
69000021;50
69000022;50
69000023;50
69000024;50
69000025;50
69000026;50
69000027;50
69000028;50
69000029;50
69000030;50
69000031;50
69000032;50
69000033;50
69000034;50
69000035;50
69000036;50
69000037;50
69000038;50
69000039;50
69000040;50
69000041;50
69000042;50
69000043;50
70000010;50
70000011;50
70000012;50
70000013;50
70000014;50
71000010;50
72000010;50
73000010;50
73000011;50
73000012;50
73000013;50
74000010;50
74000011;50
74000012;50
75000010;50
75000011;50
75000012;50
75000013;50
76000010;50
76000011;50
76000012;50
76000013;50
76000014;50
76000015;50
76000016;50
76000017;50
76000018;50
76000019;50
76000020;50
76000021;50
76000022;50
76000023;50
76000024;50
76000025;50
76000026;50
76000027;50
76000028;50
76000029;50
76000030;50
76000031;50
76000032;50
76000033;50
76000034;50
76000035;50
76000036;50
76000037;50
76000038;50
76000039;50
76000040;50
76000041;50
76000042;50
76000043;50
76000044;50
76000045;50
76000046;50
76000047;50
76000048;50
76000049;50
76000050;50
76000051;50
76000053;50
76000056;50
76000057;50
76000058;50
77000010;50
77000011;50
77000012;50
77000013;50
77000014;50
77000015;50
77000016;50
77000017;50
77000018;50
77000019;50
77000020;50
77000021;50
77000022;50
77000023;50
77000024;50
77000025;50
77000026;50
77000027;50
77000028;50
77000029;50
77000030;50
77000031;50
77000032;50
77000034;50
77000035;50
77000036;50
77000037;50
77000038;50
77000039;50
77000040;50
77000041;50
77000042;50
77000043;50
77000044;50
77000045;50
77000046;50
77000047;50
77000048;50
77000049;50
77000050;50
77000051;50
77000052;50
77000053;50
78000101;50
78000001;50
78000010;50
78000011;50
78000012;50
78000013;50
78000014;50
78000015;50
78000016;50
78000017;50
78000018;50
78000019;50
78000020;50
78000021;50
78000022;50
78000023;50
78000024;50
78000025;50
78000026;50
79000010;50
79000011;50
79000012;50
79000013;50
79000014;50
79000015;50
79000016;50
79000017;50
79000018;50
79000019;50
79000020;50
79000021;50
79000022;50
79000023;50
80000010;50
80000011;50
80000012;50
81000010;50
81000011;50
81000012;50
81000013;50
81000014;50
81000015;50
81000016;50
81000017;50
81000018;50
81000019;50
81000020;50
81000021;50
81000022;50
81000023;50
81000024;50
81000025;50
81000026;50
81000027;50
81000028;50
81000029;50
81000030;50
81000032;50
81000033;50
81000034;50
81000035;50
81000036;50
81000037;50
81000038;50
81000039;50
81000041;50
81000042;50
81000043;50
81000044;50
81000045;50
81000046;50
81000047;50
81000048;50
81000049;50
81000050;50
81000051;50
82000010;50
82000011;50
82000012;50
82000013;50
82000014;50
83000010;50
83000011;50
83000012;50
83000013;50
83000015;50
83000016;50
83000017;50
83000018;50
83000020;50
83000021;50
83000022;50
83000023;50
83000024;50
83000025;50
83000026;50
83000027;50
83000034;50
83000035;50
83000036;50
83000037;50
83000038;50
83000039;50
83000040;50
83000041;50
83000042;50
83000044;50
83000045;50
83000046;50
83000047;50
83000048;50
83000049;50
83000050;50
83000051;50
83000052;50
83000053;50
83000055;50
83000056;50
83000057;50
83000058;50
83000059;50
83000061;50
83000062;50
83000063;50
83000064;50
83000065;50
83000066;50
83000067;50
83000068;50
83000069;50
83000070;50
83000071;50
83000072;50
83000073;50
83000074;50
83000075;50
83000076;50
83000077;50
83000078;50
85000010;50
85000011;50
86000010;50
86000011;50
86000013;50
86000014;50
86000015;50
86000016;50
86000018;50
86000019;50
87000010;50
87000011;50
87000012;50
87000014;50
87000015;50
87000016;50
87000017;50
87000018;50
87000019;50
87000020;50
87000022;50
87000023;50
87000024;50
87000025;50
87000026;50
87000027;50
87000029;50
88000010;50
88000011;50
88000012;50
88000013;50
88000014;50
88000015;50
88000016;50
88000017;50
88000018;50
88000019;50
88000020;50
88000021;50
89000010;50
89000011;50
89000012;50
89000013;50
90000010;50
90000011;50
90000012;50
90000013;50
90000014;50
90000015;50
90000016;50
90000017;50
90000019;50
90000020;50
90000021;50
90000022;50
90000023;50
90000024;50
90000025;50
90000028;50
90000029;50
90000030;50
90000031;50
90000032;50
90000033;50
91000010;50
91000011;50
91000012;50
91000013;50
91000014;50
91000015;50
91000016;50
91000017;50
91000018;50
91000019;50
91000020;50
91000021;50
91000022;50
91000023;50
91000024;50
91000025;50
91000026;50
91000027;50
92000010;50
92000011;50
92000012;50
92000013;50
92000014;50
92000015;50
92000016;50
92000017;50
92000018;50
92000019;50
92000020;50
92000021;50
93000010;50
93000011;50
93000012;50
93000013;50
93000014;50
93000016;50
93000017;50
93000019;50
93000020;50
93000022;50
94000010;50
94000011;50
95000010;50
95000011;50
95000012;50
95000013;50
95000014;50
95000016;50
16003001;50
16003002;50
16003003;50
16003004;50
16003005;50
16003006;50
16003007;50
16003008;50
16003009;50
16003010;50
16003011;50
16003012;50
16003013;50
16003014;50
16003015;50
16003016;50
16003017;50
16003018;50
16003019;50
16003020;50
16003021;50
16003022;50
16003023;50
16003024;50
16003025;50
16003026;50
16003027;50
16003028;50
16003029;50
16003030;50
16003031;50
16003032;50
16003033;50
16003034;50
43004001;50
43004003;50
43005001;50
43005002;50
43005003;50
43005004;50
43005005;50
43005006;50
43005007;50
43005008;50
43005009;50
43005010;50
43005011;50
43005012;50
43005013;50
43003058;50
43003059;50
43003060;50
43003061;50
43003062;50
43003063;50
43003064;50
43003065;50
43003066;50
43003067;50
43003068;50
43003069;50
43003070;50
43003071;50
43003072;50
43003073;50
43003074;50
43003075;50
43003076;50
43003077;50
43003078;50
43003079;50
43003080;50
43003081;50
43003082;50
43003083;50
43003084;50
43003085;50
43003086;50
43003087;50
43003088;50
43003089;50
43003090;50
43003091;50
43006001;50
15002012;50
15002013;50
15002014;50
15002015;50
15002016;50
15002017;50
15002018;50
15002019;50
15002020;50
15002021;50
44001001;50
44001002;50
44001003;50
44001004;50
44001005;50
44001006;50
44001007;50
44001010;50
44001011;50
44001012;50
44002001;50
44002003;50
44003001;50
44003002;50
44003003;50
44003004;50
44003005;50
44003006;50
44003007;50
44003008;50
44003009;50
44003010;50
44003011;50
44003012;50
44003013;50
44003014;50
44003015;50
44003016;50
44003017;50
44003018;50
44003019;50
44003020;50
44003021;50
44003022;50
44004001;50
45001001;50
45001002;50
45001003;50
45001004;50
45001005;50
15001001;50
15001002;50
15001003;50
15001004;50
15001005;50
15001006;50
15001007;50
15001008;50
15001009;50
15001010;50
15001011;50
15001012;50
15001013;50
15001014;50
15001015;50
15001016;50
15001017;50
15001018;50
15001019;50
15001020;50
15001021;50
15002001;50
15002002;50
15002003;50
15002004;50
15002005;50
15002006;50
15002007;50
15002008;50
15002009;50
15002010;50
15002011;50
47001003;50
47001002;50
47001008;50
47001007;50
47001006;50
47001005;50
47001004;50
