VakID;Y [mln euro/km];X [m]
10001012;1.205;20
10001013;1.205;20
10001014;1.205;20
10008801;1.205;20
11001001;1.205;20
11001002;1.205;20
11001003;1.205;20
11001004;1.205;20
11001005;1.205;20
11001006;1.205;20
11001007;1.205;20
11001008;1.205;20
11001009;1.205;20
11001010;1.205;20
11001011;1.205;20
11001012;1.205;20
11002001;1.205;20
11002002;1.205;20
16001001;1.205;20
16001002;1.205;20
16001003;1.205;20
16001004;1.205;20
16001005;1.205;20
24003001;1.205;20
24003002;1.205;20
24003003;1.205;20
24003004;1.205;20
24003005;1.205;20
24003006;1.205;20
24003007;1.205;20
24003008;1.205;20
24003009;1.205;20
24003010;1.205;20
24003011;1.205;20
24003012;1.205;20
24003013;1.205;20
24003014;1.205;20
24003015;1.205;20
24003016;1.205;20
24003017;1.205;20
24003018;1.205;20
24003019;1.205;20
24003020;1.205;20
38001001;1.205;20
38001002;1.205;20
38001003;1.205;20
38001004;1.205;20
38001005;1.205;20
38001006;1.205;20
38001007;1.205;20
38001008;1.205;20
38001009;1.205;20
38001010;1.205;20
38001011;1.205;20
38001012;1.205;20
38001013;1.205;20
38001014;1.205;20
38001015;1.205;20
38001016;1.205;20
38001017;1.205;20
38001018;1.205;20
38001019;1.205;20
38001020;1.205;20
38001021;1.205;20
38001022;1.205;20
38001023;1.205;20
38001024;1.205;20
38001025;1.205;20
38001026;1.205;20
38001027;1.205;20
38001028;1.205;20
38001029;1.205;20
38001030;1.205;20
38001031;1.205;20
38001032;1.205;20
38001035;1.205;20
38001036;1.205;20
38008801;1.205;20
40001001;1.205;20
40001002;1.205;20
40001003;1.205;20
40001004;1.205;20
40001005;1.205;20
40001006;1.205;20
40001007;1.205;20
40001008;1.205;20
41003031;1.205;20
41003032;1.205;20
41003033;1.205;20
41003034;1.205;20
41003035;1.205;20
41003036;1.205;20
41003037;1.205;20
41003038;1.205;20
41003039;1.205;20
41003040;1.205;20
41003041;1.205;20
41003042;1.205;20
41003043;1.205;20
41003044;1.205;20
41003045;1.205;20
41003046;1.205;20
41003047;1.205;20
41003048;1.205;20
41003049;1.205;20
41003050;1.205;20
41003051;1.205;20
41003052;1.205;20
41003053;1.205;20
41003054;1.205;20
41003055;1.205;20
41003056;1.205;20
41003057;1.205;20
41006001;1.205;20
42001001;1.205;20
42001002;1.205;20
42001003;1.205;20
42001004;1.205;20
42001005;1.205;20
42001006;1.205;20
42001007;1.205;20
42001008;1.205;20
42001009;1.205;20
42001010;1.205;20
42002001;1.205;20
42002002;1.205;20
42002003;1.205;20
42002004;1.205;20
42002005;1.205;20
42002006;1.205;20
42002007;1.205;20
42002008;1.205;20
42002009;1.205;20
42003001;1.205;20
42003002;1.205;20
42003003;1.205;20
42003004;1.205;20
42003005;1.205;20
43001001;1.205;20
43001002;1.205;20
43001003;1.205;20
43001004;1.205;20
43001005;1.205;20
43001006;1.205;20
43001007;1.205;20
43001008;1.205;20
43001009;1.205;20
43001010;1.205;20
43001011;1.205;20
43001012;1.205;20
43001013;1.205;20
43001014;1.205;20
43001015;1.205;20
43001016;1.205;20
43001017;1.205;20
43001018;1.205;20
43001019;1.205;20
43001020;1.205;20
43001021;1.205;20
43001022;1.205;20
43001023;1.205;20
43001024;1.205;20
43001025;1.205;20
43001026;1.205;20
43001027;1.205;20
43001028;1.205;20
43001029;1.205;20
43001030;1.205;20
43001031;1.205;20
43001032;1.205;20
43001033;1.205;20
43001034;1.205;20
43001035;1.205;20
43001036;1.205;20
43001037;1.205;20
43001038;1.205;20
43001039;1.205;20
43001040;1.205;20
43001041;1.205;20
43001042;1.205;20
43001043;1.205;20
43001044;1.205;20
43001045;1.205;20
43002001;1.205;20
43002003;1.205;20
43003001;1.205;20
43003002;1.205;20
43003003;1.205;20
43003004;1.205;20
43003005;1.205;20
43003006;1.205;20
43003007;1.205;20
43003008;1.205;20
43003009;1.205;20
43003010;1.205;20
43003011;1.205;20
43003012;1.205;20
43003013;1.205;20
43003014;1.205;20
43003015;1.205;20
43003016;1.205;20
43003017;1.205;20
43003018;1.205;20
43003019;1.205;20
43003020;1.205;20
43003021;1.205;20
43003022;1.205;20
43003023;1.205;20
43003024;1.205;20
43003025;1.205;20
43003026;1.205;20
43003027;1.205;20
43003028;1.205;20
43003029;1.205;20
43003031;1.205;20
43003032;1.205;20
43003033;1.205;20
43003034;1.205;20
43003035;1.205;20
43003036;1.205;20
43003037;1.205;20
43003038;1.205;20
43003039;1.205;20
43003040;1.205;20
43003041;1.205;20
43003042;1.205;20
43003043;1.205;20
43003044;1.205;20
43003045;1.205;20
43003046;1.205;20
43003047;1.205;20
43003048;1.205;20
43003049;1.205;20
43003050;1.205;20
43003051;1.205;20
43003052;1.205;20
43003053;1.205;20
43003054;1.205;20
43003055;1.205;20
43003056;1.205;20
43003057;1.205;20
43008801;1.205;20
47001001;1.205;20
47002001;1.205;20
47002002;1.205;20
47002003;1.205;20
47002004;1.205;20
47002005;1.205;20
47002006;1.205;20
47002007;1.205;20
47002008;1.205;20
47002009;1.205;20
47002010;1.205;20
47002011;1.205;20
48001001;1.205;20
48001002;1.205;20
48001003;1.205;20
48001004;1.205;20
48001005;1.205;20
48001006;1.205;20
48001007;1.205;20
48001008;1.205;20
48001009;1.205;20
48001010;1.205;20
48001011;1.205;20
48001012;1.205;20
48001013;1.205;20
48001014;1.205;20
48001015;1.205;20
48001016;1.205;20
48001017;1.205;20
48001018;1.205;20
48001019;1.205;20
48001020;1.205;20
48001021;1.205;20
48001022;1.205;20
48001023;1.205;20
48001024;1.205;20
48001025;1.205;20
48001026;1.205;20
48001027;1.205;20
48001028;1.205;20
48001029;1.205;20
48001030;1.205;20
48001031;1.205;20
48001032;1.205;20
48001033;1.205;20
48001034;1.205;20
48001035;1.205;20
48001036;1.205;20
48001037;1.205;20
48001038;1.205;20
48001039;1.205;20
48001040;1.205;20
48001041;1.205;20
48001042;1.205;20
48001043;1.205;20
48001044;1.205;20
48001045;1.205;20
48001046;1.205;20
48001047;1.205;20
48001048;1.205;20
48001049;1.205;20
48001050;1.205;20
48001051;1.205;20
48001052;1.205;20
48001053;1.205;20
48001054;1.205;20
48001055;1.205;20
48001056;1.205;20
49001002;1.205;20
49001003;1.205;20
49001004;1.205;20
49001005;1.205;20
49001006;1.205;20
49001007;1.205;20
49001008;1.205;20
49001009;1.205;20
49001010;1.205;20
49001011;1.205;20
49001012;1.205;20
49001013;1.205;20
49001014;1.205;20
49001015;1.205;20
49001016;1.205;20
49001017;1.205;20
49001018;1.205;20
49002001;1.205;20
49002002;1.205;20
49002003;1.205;20
49002004;1.205;20
49002005;1.205;20
49002006;1.205;20
49002007;1.205;20
49002008;1.205;20
49002009;1.205;20
49002010;1.205;20
49002011;1.205;20
49002012;1.205;20
49002013;1.205;20
49002014;1.205;20
49002015;1.205;20
49002016;1.205;20
49002017;1.205;20
49003001;1.205;20
49003002;1.205;20
49003003;1.205;20
49003004;1.205;20
49003005;1.205;20
49003006;1.205;20
49003007;1.205;20
49003008;1.205;20
49003009;1.205;20
49003010;1.205;20
49003011;1.205;20
49003012;1.205;20
49003013;1.205;20
50001001;1.205;20
50001002;1.205;20
50001003;1.205;20
50001004;1.205;20
50001005;1.205;20
50001006;1.205;20
50001007;1.205;20
50001008;1.205;20
50001009;1.205;20
50001010;1.205;20
50002001;1.205;20
50002002;1.205;20
50002003;1.205;20
50002004;1.205;20
50003001;1.205;20
50003002;1.205;20
51001001;1.205;20
51001002;1.205;20
51001003;1.205;20
51001004;1.205;20
51002001;1.205;20
51002002;1.205;20
51002003;1.205;20
51002004;1.205;20
51002005;1.205;20
51002006;1.205;20
51002007;1.205;20
51002008;1.205;20
51002009;1.205;20
51002010;1.205;20
51002011;1.205;20
51003001;1.205;20
51003002;1.205;20
51003003;1.205;20
52001001;1.205;20
52001002;1.205;20
52001003;1.205;20
52001004;1.205;20
52001005;1.205;20
52001006;1.205;20
52001007;1.205;20
52001012;1.205;20
52001013;1.205;20
52001014;1.205;20
52001015;1.205;20
52001016;1.205;20
52001017;1.205;20
52001019;1.205;20
52001020;1.205;20
52002001;1.205;20
52002002;1.205;20
52002003;1.205;20
52002004;1.205;20
52002005;1.205;20
52002006;1.205;20
52002007;1.205;20
52002008;1.205;20
52002009;1.205;20
52002010;1.205;20
52002011;1.205;20
52002012;1.205;20
52002013;1.205;20
52002014;1.205;20
52002015;1.205;20
52002016;1.205;20
52002017;1.205;20
52002018;1.205;20
52002019;1.205;20
52003001;1.205;20
52003002;1.205;20
52003003;1.205;20
52003004;1.205;20
52003005;1.205;20
52003007;1.205;20
52003008;1.205;20
52003009;1.205;20
52003010;1.205;20
52003011;1.205;20
52003012;1.205;20
52003013;1.205;20
52003014;1.205;20
52003015;1.205;20
52003016;1.205;20
52003017;1.205;20
52003018;1.205;20
52008801;1.205;20
52008802;1.205;20
52008803;1.205;20
52008804;1.205;20
53003001;1.205;20
53003002;1.205;20
53003003;1.205;20
53003004;1.205;20
53003005;1.205;20
53003006;1.205;20
53003007;1.205;20
53003008;1.205;20
53003009;1.205;20
53003010;1.205;20
53003011;1.205;20
53003012;1.205;20
53003013;1.205;20
53003014;1.205;20
53003015;1.205;20
53003016;1.205;20
53003017;1.205;20
53003018;1.205;20
53003019;1.205;20
53003020;1.205;20
53003021;1.205;20
53003022;1.205;20
53003023;1.205;20
53003024;1.205;20
53003025;1.205;20
53003026;1.205;20
53003027;1.205;20
53003028;1.205;20
53003029;1.205;20
53003030;1.205;20
53003031;1.205;20
53003032;1.205;20
53003033;1.205;20
53003034;1.205;20
53003035;1.205;20
53003036;1.205;20
53003037;1.205;20
53003038;1.205;20
53003039;1.205;20
53003040;1.205;20
53003041;1.205;20
53003042;1.205;20
24001003;1.205;20
24001004;1.205;20
24001005;1.205;20
24001006;1.205;20
24001007;1.205;20
24001008;1.205;20
24001009;1.205;20
24001010;1.205;20
24001011;1.205;20
24001012;1.205;20
24001013;1.205;20
24001014;1.205;20
24001015;1.205;20
24001016;1.205;20
24002012;1.205;20
35001000;1.205;20
35001001;1.205;20
35001002;1.205;20
35001003;1.205;20
35001004;1.205;20
35001008;1.205;20
35001009;1.205;20
35001010;1.205;20
35001011;1.205;20
35001012;1.205;20
35001013;1.205;20
35008801;1.205;20
36001002;1.205;20
36001003;1.205;20
36001004;1.205;20
36001005;1.205;20
36001006;1.205;20
36001007;1.205;20
36001008;1.205;20
36001009;1.205;20
36001010;1.205;20
36001011;1.205;20
36001012;1.205;20
36001013;1.205;20
36001014;1.205;20
36001015;1.205;20
36001016;1.205;20
36001017;1.205;20
36001019;1.205;20
36001020;1.205;20
36001021;1.205;20
36001022;1.205;20
36001023;1.205;20
36001024;1.205;20
36001026;1.205;20
36001027;1.205;20
36001028;1.205;20
36001029;1.205;20
36001030;1.205;20
36001031;1.205;20
36001032;1.205;20
36001033;1.205;20
36001034;1.205;20
36001035;1.205;20
36001036;1.205;20
36001037;1.205;20
36001038;1.205;20
36001039;1.205;20
36001040;1.205;20
36001041;1.205;20
36001042;1.205;20
36001043;1.205;20
36001044;1.205;20
36001045;1.205;20
36001046;1.205;20
36001047;1.205;20
36001048;1.205;20
36001049;1.205;20
36001050;1.205;20
36001051;1.205;20
36001052;1.205;20
36001053;1.205;20
36001054;1.205;20
36001055;1.205;20
36001057;1.205;20
36001058;1.205;20
36001059;1.205;20
36001060;1.205;20
36001061;1.205;20
36001062;1.205;20
36001063;1.205;20
36001064;1.205;20
36001065;1.205;20
36001066;1.205;20
36001067;1.205;20
36001069;1.205;20
36001070;1.205;20
36001071;1.205;20
36001072;1.205;20
36001073;1.205;20
36001074;1.205;20
36001075;1.205;20
36001076;1.205;20
36001077;1.205;20
36001078;1.205;20
36001079;1.205;20
36001080;1.205;20
36001081;1.205;20
36001082;1.205;20
36001083;1.205;20
36001084;1.205;20
36001085;1.205;20
36001086;1.205;20
36001087;1.205;20
36001088;1.205;20
36001089;1.205;20
36001091;1.205;20
36001093;1.205;20
36001094;1.205;20
36001095;1.205;20
36001096;1.205;20
36001097;1.205;20
36001098;1.205;20
36001099;1.205;20
36001100;1.205;20
36001101;1.205;20
36001102;1.205;20
36001103;1.205;20
36002001;1.205;20
36003001;1.205;20
36003002;1.205;20
36003003;1.205;20
36003004;1.205;20
36003005;1.205;20
36003006;1.205;20
36101000;1.205;20
36101001;1.205;20
36101002;1.205;20
36101004;1.205;20
37001000;1.205;20
37001001;1.205;20
37001002;1.205;20
38002001;1.205;20
38002002;1.205;20
38002003;1.205;20
38002004;1.205;20
38002005;1.205;20
38003001;1.205;20
38003002;1.205;20
38003004;1.205;20
38003005;1.205;20
38003006;1.205;20
38003007;1.205;20
38003008;1.205;20
38003009;1.205;20
38003010;1.205;20
38003011;1.205;20
38003012;1.205;20
38003013;1.205;20
38003014;1.205;20
38003015;1.205;20
38003016;1.205;20
38003017;1.205;20
38003018;1.205;20
38003019;1.205;20
39001001;1.205;20
39001002;1.205;20
39001003;1.205;20
39001004;1.205;20
39001005;1.205;20
39001006;1.205;20
39001007;1.205;20
40002001;1.205;20
40002002;1.205;20
40002003;1.205;20
40002004;1.205;20
40002005;1.205;20
40002006;1.205;20
40002007;1.205;20
40002008;1.205;20
40002009;1.205;20
40002010;1.205;20
41003002;1.205;20
41003003;1.205;20
41003004;1.205;20
41003005;1.205;20
41003006;1.205;20
41003007;1.205;20
41003008;1.205;20
41003009;1.205;20
41003010;1.205;20
41003011;1.205;20
41003012;1.205;20
41003013;1.205;20
41003014;1.205;20
41003015;1.205;20
41003016;1.205;20
41003017;1.205;20
41003018;1.205;20
41003019;1.205;20
41003020;1.205;20
41003021;1.205;20
41003022;1.205;20
41003023;1.205;20
41003024;1.205;20
41003025;1.205;20
41003027;1.205;20
41003028;1.205;20
54000010;1.205;20
54000011;1.205;20
54000012;1.205;20
54000013;1.205;20
54000014;1.205;20
54000015;1.205;20
54000016;1.205;20
54000017;1.205;20
54000018;1.205;20
54000019;1.205;20
54000020;1.205;20
54000021;1.205;20
54000022;1.205;20
54000023;1.205;20
54000024;1.205;20
54000025;1.205;20
54000026;1.205;20
54000027;1.205;20
54000028;1.205;20
54000029;1.205;20
54000030;1.205;20
54000031;1.205;20
54000032;1.205;20
54000033;1.205;20
54000034;1.205;20
54000035;1.205;20
54000036;1.205;20
54000037;1.205;20
54000038;1.205;20
54000039;1.205;20
54000040;1.205;20
54000041;1.205;20
54000042;1.205;20
54000043;1.205;20
54000044;1.205;20
54000045;1.205;20
54000046;1.205;20
54000047;1.205;20
55000010;1.205;20
55000011;1.205;20
55000012;1.205;20
55000013;1.205;20
55000014;1.205;20
55000015;1.205;20
55000016;1.205;20
55000017;1.205;20
55000018;1.205;20
55000019;1.205;20
55000020;1.205;20
55000021;1.205;20
55000022;1.205;20
55000023;1.205;20
55000024;1.205;20
55000025;1.205;20
55000026;1.205;20
55000027;1.205;20
55000028;1.205;20
55000029;1.205;20
55000030;1.205;20
55000031;1.205;20
55000032;1.205;20
55000033;1.205;20
55000034;1.205;20
55000035;1.205;20
55000036;1.205;20
55000037;1.205;20
55000038;1.205;20
55000039;1.205;20
55000040;1.205;20
55000041;1.205;20
56000010;1.205;20
56000011;1.205;20
57000010;1.205;20
57000011;1.205;20
57000012;1.205;20
57000013;1.205;20
57000014;1.205;20
57000015;1.205;20
57000016;1.205;20
59000010;1.205;20
59000011;1.205;20
59000012;1.205;20
60000010;1.205;20
60000011;1.205;20
60000012;1.205;20
60000013;1.205;20
60000014;1.205;20
60000015;1.205;20
60000016;1.205;20
60000017;1.205;20
60000018;1.205;20
61100001;1.205;20
61100003;1.205;20
61100004;1.205;20
61100005;1.205;20
61100006;1.205;20
61100002;1.205;20
61100010;1.205;20
61100009;1.205;20
61100008;1.205;20
62100009;1.205;20
62100001;1.205;20
62100003;1.205;20
62100004;1.205;20
62100005;1.205;20
62100006;1.205;20
62100007;1.205;20
62100008;1.205;20
62100002;1.205;20
63100002;1.205;20
63100001;1.205;20
63200002;1.205;20
63200001;1.205;20
64100003;1.205;20
64100004;1.205;20
64100005;1.205;20
64100006;1.205;20
64100002;1.205;20
64100001;1.205;20
65000010;1.205;20
65000011;1.205;20
65000012;1.205;20
65000013;1.205;20
65000014;1.205;20
65000015;1.205;20
65000016;1.205;20
66000010;1.205;20
67000010;1.205;20
68000010;1.205;20
68000011;1.205;20
68000012;1.205;20
68000013;1.205;20
68000014;1.205;20
68000015;1.205;20
68000016;1.205;20
68000017;1.205;20
68000018;1.205;20
68000019;1.205;20
68000020;1.205;20
68000021;1.205;20
68000022;1.205;20
68000023;1.205;20
68000024;1.205;20
68000025;1.205;20
68000026;1.205;20
68000027;1.205;20
68000028;1.205;20
68000029;1.205;20
68000030;1.205;20
68000031;1.205;20
68000032;1.205;20
68000033;1.205;20
68000034;1.205;20
68000035;1.205;20
68000036;1.205;20
68000037;1.205;20
68000038;1.205;20
68000039;1.205;20
68000040;1.205;20
68000041;1.205;20
68000042;1.205;20
68000043;1.205;20
68000044;1.205;20
68000045;1.205;20
68000046;1.205;20
68000047;1.205;20
68000048;1.205;20
68000049;1.205;20
68000050;1.205;20
68000051;1.205;20
68000052;1.205;20
68000053;1.205;20
68000054;1.205;20
68000055;1.205;20
68000056;1.205;20
68000057;1.205;20
68000058;1.205;20
68000059;1.205;20
69000010;1.205;20
69000011;1.205;20
69000012;1.205;20
69000013;1.205;20
69000014;1.205;20
69000015;1.205;20
69000016;1.205;20
69000017;1.205;20
69000018;1.205;20
69000019;1.205;20
69000020;1.205;20
69000021;1.205;20
69000022;1.205;20
69000023;1.205;20
69000024;1.205;20
69000025;1.205;20
69000026;1.205;20
69000027;1.205;20
69000028;1.205;20
69000029;1.205;20
69000030;1.205;20
69000031;1.205;20
69000032;1.205;20
69000033;1.205;20
69000034;1.205;20
69000035;1.205;20
69000036;1.205;20
69000037;1.205;20
69000038;1.205;20
69000039;1.205;20
69000040;1.205;20
69000041;1.205;20
69000042;1.205;20
69000043;1.205;20
70000010;1.205;20
70000011;1.205;20
70000012;1.205;20
70000013;1.205;20
70000014;1.205;20
71000010;1.205;20
72000010;1.205;20
73000010;1.205;20
73000011;1.205;20
73000012;1.205;20
73000013;1.205;20
74000010;1.205;20
74000011;1.205;20
74000012;1.205;20
75000010;1.205;20
75000011;1.205;20
75000012;1.205;20
75000013;1.205;20
76000010;1.205;20
76000011;1.205;20
76000012;1.205;20
76000013;1.205;20
76000014;1.205;20
76000015;1.205;20
76000016;1.205;20
76000017;1.205;20
76000018;1.205;20
76000019;1.205;20
76000020;1.205;20
76000021;1.205;20
76000022;1.205;20
76000023;1.205;20
76000024;1.205;20
76000025;1.205;20
76000026;1.205;20
76000027;1.205;20
76000028;1.205;20
76000029;1.205;20
76000030;1.205;20
76000031;1.205;20
76000032;1.205;20
76000033;1.205;20
76000034;1.205;20
76000035;1.205;20
76000036;1.205;20
76000037;1.205;20
76000038;1.205;20
76000039;1.205;20
76000040;1.205;20
76000041;1.205;20
76000042;1.205;20
76000043;1.205;20
76000044;1.205;20
76000045;1.205;20
76000046;1.205;20
76000047;1.205;20
76000048;1.205;20
76000049;1.205;20
76000050;1.205;20
76000051;1.205;20
76000053;1.205;20
76000056;1.205;20
76000057;1.205;20
76000058;1.205;20
77000010;1.205;20
77000011;1.205;20
77000012;1.205;20
77000013;1.205;20
77000014;1.205;20
77000015;1.205;20
77000016;1.205;20
77000017;1.205;20
77000018;1.205;20
77000019;1.205;20
77000020;1.205;20
77000021;1.205;20
77000022;1.205;20
77000023;1.205;20
77000024;1.205;20
77000025;1.205;20
77000026;1.205;20
77000027;1.205;20
77000028;1.205;20
77000029;1.205;20
77000030;1.205;20
77000031;1.205;20
77000032;1.205;20
77000034;1.205;20
77000035;1.205;20
77000036;1.205;20
77000037;1.205;20
77000038;1.205;20
77000039;1.205;20
77000040;1.205;20
77000041;1.205;20
77000042;1.205;20
77000043;1.205;20
77000044;1.205;20
77000045;1.205;20
77000046;1.205;20
77000047;1.205;20
77000048;1.205;20
77000049;1.205;20
77000050;1.205;20
77000051;1.205;20
77000052;1.205;20
77000053;1.205;20
78000010;1.205;20
78000011;1.205;20
78000012;1.205;20
78000013;1.205;20
78000014;1.205;20
78000015;1.205;20
78000016;1.205;20
78000017;1.205;20
78000018;1.205;20
78000019;1.205;20
78000020;1.205;20
78000021;1.205;20
78000022;1.205;20
78000023;1.205;20
78000024;1.205;20
78000025;1.205;20
78000026;1.205;20
79000010;1.205;20
79000011;1.205;20
79000012;1.205;20
79000013;1.205;20
79000014;1.205;20
79000015;1.205;20
79000016;1.205;20
79000017;1.205;20
79000018;1.205;20
79000019;1.205;20
79000020;1.205;20
79000021;1.205;20
79000022;1.205;20
79000023;1.205;20
80000010;1.205;20
80000011;1.205;20
80000012;1.205;20
81000010;1.205;20
81000011;1.205;20
81000012;1.205;20
81000013;1.205;20
81000014;1.205;20
81000015;1.205;20
81000016;1.205;20
81000017;1.205;20
81000018;1.205;20
81000019;1.205;20
81000020;1.205;20
81000021;1.205;20
81000022;1.205;20
81000023;1.205;20
81000024;1.205;20
81000025;1.205;20
81000026;1.205;20
81000027;1.205;20
81000028;1.205;20
81000029;1.205;20
81000030;1.205;20
81000032;1.205;20
81000033;1.205;20
81000034;1.205;20
81000035;1.205;20
81000036;1.205;20
81000037;1.205;20
81000038;1.205;20
81000039;1.205;20
81000041;1.205;20
81000042;1.205;20
81000043;1.205;20
81000044;1.205;20
81000045;1.205;20
81000046;1.205;20
81000047;1.205;20
81000048;1.205;20
81000049;1.205;20
81000050;1.205;20
81000051;1.205;20
82000010;1.205;20
82000011;1.205;20
82000012;1.205;20
82000013;1.205;20
82000014;1.205;20
83000010;1.205;20
83000011;1.205;20
83000012;1.205;20
83000013;1.205;20
83000015;1.205;20
83000016;1.205;20
83000017;1.205;20
83000018;1.205;20
83000020;1.205;20
83000021;1.205;20
83000022;1.205;20
83000023;1.205;20
83000024;1.205;20
83000025;1.205;20
83000026;1.205;20
83000027;1.205;20
83000029;1.205;20
83000030;1.205;20
83000032;1.205;20
83000033;1.205;20
83000034;1.205;20
83000035;1.205;20
83000036;1.205;20
83000037;1.205;20
83000038;1.205;20
83000039;1.205;20
83000040;1.205;20
83000041;1.205;20
83000042;1.205;20
83000044;1.205;20
83000045;1.205;20
83000046;1.205;20
83000047;1.205;20
83000048;1.205;20
83000049;1.205;20
83000050;1.205;20
83000051;1.205;20
83000052;1.205;20
83000053;1.205;20
83000055;1.205;20
83000056;1.205;20
83000057;1.205;20
83000058;1.205;20
83000059;1.205;20
83000061;1.205;20
83000062;1.205;20
83000063;1.205;20
83000064;1.205;20
83000065;1.205;20
83000066;1.205;20
83000067;1.205;20
83000068;1.205;20
83000069;1.205;20
83000070;1.205;20
83000071;1.205;20
83000072;1.205;20
83000073;1.205;20
83000074;1.205;20
83000075;1.205;20
83000076;1.205;20
83000077;1.205;20
83000078;1.205;20
85000010;1.205;20
85000011;1.205;20
86000010;1.205;20
86000011;1.205;20
86000013;1.205;20
86000014;1.205;20
86000015;1.205;20
86000016;1.205;20
86000018;1.205;20
86000019;1.205;20
87000010;1.205;20
87000011;1.205;20
87000012;1.205;20
87000014;1.205;20
87000015;1.205;20
87000016;1.205;20
87000017;1.205;20
87000018;1.205;20
87000019;1.205;20
87000020;1.205;20
87000022;1.205;20
87000023;1.205;20
87000024;1.205;20
87000025;1.205;20
87000026;1.205;20
87000027;1.205;20
87000029;1.205;20
88000010;1.205;20
88000011;1.205;20
88000012;1.205;20
88000013;1.205;20
88000014;1.205;20
88000015;1.205;20
88000016;1.205;20
88000017;1.205;20
88000018;1.205;20
88000019;1.205;20
88000020;1.205;20
88000021;1.205;20
89000010;1.205;20
89000011;1.205;20
89000012;1.205;20
89000013;1.205;20
90000010;1.205;20
90000011;1.205;20
90000012;1.205;20
90000013;1.205;20
90000014;1.205;20
90000015;1.205;20
90000016;1.205;20
90000017;1.205;20
90000019;1.205;20
90000020;1.205;20
90000021;1.205;20
90000022;1.205;20
90000023;1.205;20
90000024;1.205;20
90000025;1.205;20
90000028;1.205;20
90000029;1.205;20
90000030;1.205;20
90000031;1.205;20
90000032;1.205;20
90000033;1.205;20
91000010;1.205;20
91000011;1.205;20
91000012;1.205;20
91000013;1.205;20
91000014;1.205;20
91000015;1.205;20
91000016;1.205;20
91000017;1.205;20
91000018;1.205;20
91000019;1.205;20
91000020;1.205;20
91000021;1.205;20
91000022;1.205;20
91000023;1.205;20
91000024;1.205;20
91000025;1.205;20
91000026;1.205;20
91000027;1.205;20
92000010;1.205;20
92000011;1.205;20
92000012;1.205;20
92000013;1.205;20
92000014;1.205;20
92000015;1.205;20
92000016;1.205;20
92000017;1.205;20
92000018;1.205;20
92000019;1.205;20
92000020;1.205;20
92000021;1.205;20
93000010;1.205;20
93000011;1.205;20
93000012;1.205;20
93000013;1.205;20
93000014;1.205;20
93000016;1.205;20
93000017;1.205;20
93000019;1.205;20
93000020;1.205;20
93000022;1.205;20
94000010;1.205;20
94000011;1.205;20
95000010;1.205;20
95000011;1.205;20
95000012;1.205;20
95000013;1.205;20
95000014;1.205;20
95000016;1.205;20
240010011;1.205;20
240010012;1.205;20
240010021;1.205;20
240010022;1.205;20
360010181;1.205;20
360010182;1.205;20
360010251;1.205;20
360010252;1.205;20
360010561;1.205;20
360010562;1.205;20
360010681;1.205;20
360010682;1.205;20
360010901;1.205;20
360010902;1.205;20
360010921;1.205;20
360010922;1.205;20
380030031;1.205;20
380030032;1.205;20
410030011;1.205;20
410030012;1.205;20
410030261;1.205;20
410030262;1.205;20
410030291;1.205;20
410030292;1.205;20
410050021;1.205;20
410050022;1.205;20
16003001;1.205;20
16003002;1.205;20
16003003;1.205;20
16003004;1.205;20
16003005;1.205;20
16003006;1.205;20
16003007;1.205;20
16003008;1.205;20
16003009;1.205;20
16003010;1.205;20
16003011;1.205;20
16003012;1.205;20
16003013;1.205;20
16003014;1.205;20
16003015;1.205;20
16003016;1.205;20
16003017;1.205;20
16003018;1.205;20
16003019;1.205;20
16003020;1.205;20
16003021;1.205;20
16003022;1.205;20
16003023;1.205;20
16003024;1.205;20
16003025;1.205;20
16003026;1.205;20
16003027;1.205;20
16003028;1.205;20
16003029;1.205;20
16003030;1.205;20
16003031;1.205;20
16003032;1.205;20
16003033;1.205;20
16003034;1.205;20
43004001;1.205;20
43004003;1.205;20
43005001;1.205;20
43005002;1.205;20
43005003;1.205;20
43005004;1.205;20
43005005;1.205;20
43005006;1.205;20
43005007;1.205;20
43005008;1.205;20
43005009;1.205;20
43005010;1.205;20
43005011;1.205;20
43005012;1.205;20
43005013;1.205;20
43003058;1.205;20
43003059;1.205;20
43003060;1.205;20
43003061;1.205;20
43003062;1.205;20
43003063;1.205;20
43003064;1.205;20
43003065;1.205;20
43003066;1.205;20
43003067;1.205;20
43003068;1.205;20
43003069;1.205;20
43003070;1.205;20
43003071;1.205;20
43003072;1.205;20
43003073;1.205;20
43003074;1.205;20
43003075;1.205;20
43003076;1.205;20
43003077;1.205;20
43003078;1.205;20
43003079;1.205;20
43003080;1.205;20
43003081;1.205;20
43003082;1.205;20
43003083;1.205;20
43003084;1.205;20
43003085;1.205;20
43003086;1.205;20
43003087;1.205;20
43003088;1.205;20
43003089;1.205;20
43003090;1.205;20
43003091;1.205;20
43006001;1.205;20
15002012;1.205;20
15002013;1.205;20
15002014;1.205;20
15002015;1.205;20
15002016;1.205;20
15002017;1.205;20
15002018;1.205;20
15002019;1.205;20
15002020;1.205;20
15002021;1.205;20
44001001;1.205;20
44001002;1.205;20
44001003;1.205;20
44001004;1.205;20
44001005;1.205;20
44001006;1.205;20
44001007;1.205;20
44001010;1.205;20
44001011;1.205;20
44001012;1.205;20
44002001;1.205;20
44002003;1.205;20
44003001;1.205;20
44003002;1.205;20
44003003;1.205;20
44003004;1.205;20
44003005;1.205;20
44003006;1.205;20
44003007;1.205;20
44003008;1.205;20
44003009;1.205;20
44003010;1.205;20
44003011;1.205;20
44003012;1.205;20
44003013;1.205;20
44003014;1.205;20
44003015;1.205;20
44003016;1.205;20
44003017;1.205;20
44003018;1.205;20
44003019;1.205;20
44003020;1.205;20
44003021;1.205;20
44003022;1.205;20
44004001;1.205;20
45001001;1.205;20
45001002;1.205;20
45001003;1.205;20
45001004;1.205;20
45001005;1.205;20
15001001;1.205;20
15001002;1.205;20
15001003;1.205;20
15001004;1.205;20
15001005;1.205;20
15001006;1.205;20
15001007;1.205;20
15001008;1.205;20
15001009;1.205;20
15001010;1.205;20
15001011;1.205;20
15001012;1.205;20
15001013;1.205;20
15001014;1.205;20
15001015;1.205;20
15001016;1.205;20
15001017;1.205;20
15001018;1.205;20
15001019;1.205;20
15001020;1.205;20
15001021;1.205;20
15002001;1.205;20
15002002;1.205;20
15002003;1.205;20
15002004;1.205;20
15002005;1.205;20
15002006;1.205;20
15002007;1.205;20
15002008;1.205;20
15002009;1.205;20
15002010;1.205;20
15002011;1.205;20
47001003;1.205;20
47001002;1.205;20
47001008;1.205;20
47001007;1.205;20
47001006;1.205;20
47001005;1.205;20
47001004;1.205;20
