16001001
16001002
16001003
16001004
16001005
24003001
24003002
24003003
24003004
24003005
24003006
24003007
24003008
24003009
24003010
24003011
24003012
24003013
24003014
24003015
24003016
24003017
24003018
24003019
24003020
38001001
38001002
38001003
38001004
38001005
38001006
38001007
38001008
38001009
38001010
38001011
38001012
38001013
38001014
38001015
38001016
38001017
38001018
38001019
38001020
38001021
38001022
38001023
38001024
38001025
38001026
38001027
38001028
38001029
38001030
38001031
38001032
38001035
38001036
38008801
40001001
40001002
40001003
40001004
40001005
40001006
40001007
40001008
41003031
41003032
41003033
41003034
41003035
41003036
41003037
41003038
41003039
41003040
41003041
41003042
41003043
41003044
41003045
41003046
41003047
41003048
41003049
41003050
41003051
41003052
41003053
41003054
41003055
41003056
41003057
41006001
42001001
42001002
42001003
42001004
42001005
42001006
42001007
42001008
42001009
42001010
42002001
42002002
42002003
42002004
42002005
42002006
42002007
42002008
42002009
42003001
42003002
42003003
42003004
42003005
43001001
43001002
43001003
43001004
43001005
43001006
43001007
43001008
43001009
43001010
43001011
43001012
43001013
43001014
43001015
43001016
43001017
43001018
43001019
43001020
43001021
43001022
43001023
43001024
43001025
43001026
43001027
43001028
43001029
43001030
43001031
43001032
43001033
43001034
43001035
43001036
43001037
43001038
43001039
43001040
43001041
43001042
43001043
43001044
43001045
43002001
43002003
43003001
43003002
43003003
43003004
43003005
43003006
43003007
43003008
43003009
43003010
43003011
43003012
43003013
43003014
43003015
43003016
43003017
43003018
43003019
43003020
43003021
43003022
43003023
43003024
43003025
43003026
43003027
43003028
43003029
43003031
43003032
43003033
43003034
43003035
43003036
43003037
43003038
43003039
43003040
43003041
43003042
43003043
43003044
43008801
end